EESchema Schematic File Version 4
EELAYER 30 0
EELAYER END
$Descr A3 16535 11693
encoding utf-8
Sheet 1 1
Title "FTDI JTAG UART"
Date "2022-07-29"
Rev "v1.1"
Comp "Karlsruhe Institute of Technology (KIT)"
Comment1 "Institute for Data Processing and Electronics (IPE)"
Comment2 "Luis Ardila"
Comment3 ""
Comment4 ""
$EndDescr
Text Label 10550 6150 0    50   ~ 0
UART0_TXD_O
$Comp
L KIT_Interface_USB:FT4232H-56Q U16
U 1 1 5CC6982D
P 8350 5750
F 0 "U16" H 9250 7850 50  0000 C CNN
F 1 "FT4232H-56Q" H 7600 3750 50  0000 C CNN
F 2 "KIT_Package_DFN_QFN:VQFN-56-1EP_8x8mm_P0.5mm_EP5.9x5.9mm" H 8350 5750 50  0001 C CNN
F 3 "https://www.ftdichip.com/Support/Documents/DataSheets/ICs/DS_FT4232H.pdf" H 8350 5750 50  0001 C CNN
F 4 "111-5926" H 8350 5750 50  0001 C CNN "rs#"
F 5 "FTDI Chip" H 8350 5750 50  0001 C CNN "manf"
F 6 "FT4232H-56Q-TRAY" H 8350 5750 50  0001 C CNN "manf#"
	1    8350 5750
	1    0    0    -1  
$EndComp
$Comp
L Memory_EEPROM:93LCxxB U15
U 1 1 5CC6BF73
P 4950 6650
F 0 "U15" H 4700 6900 50  0000 C CNN
F 1 "93LC56B-MC" H 5250 6400 50  0000 C CNN
F 2 "Package_DFN_QFN:DFN-8-1EP_3x2mm_P0.5mm_EP1.75x1.45mm" H 4950 6650 50  0001 C CNN
F 3 "http://ww1.microchip.com/downloads/en/DeviceDoc/21794G.pdf" H 4950 6650 50  0001 C CNN
F 4 "93LC56BT-I/MCCT-ND" H 4950 6650 50  0001 C CNN "digikey#"
F 5 "Microchip Technology" H 4950 6650 50  0001 C CNN "manf"
F 6 "93LC56BT-I/MC" H 4950 6650 50  0001 C CNN "manf#"
	1    4950 6650
	1    0    0    -1  
$EndComp
$Comp
L Device:R R58
U 1 1 5CC6F7D5
P 6400 6750
F 0 "R58" V 6350 6950 50  0000 C CNN
F 1 "2k" V 6350 6600 50  0000 C CNN
F 2 "Resistor_SMD:R_0402_1005Metric" V 6330 6750 50  0001 C CNN
F 3 "~" H 6400 6750 50  0001 C CNN
F 4 "1%" H 6400 6750 50  0001 C CNN "tolerance"
F 5 "AVT-IPE" H 6400 6750 50  0001 C CNN "stock"
	1    6400 6750
	0    1    1    0   
$EndComp
Wire Wire Line
	6550 6750 7000 6750
Wire Wire Line
	7000 6750 7000 6650
Connection ~ 7000 6650
Wire Wire Line
	7000 6650 7150 6650
$Comp
L power:GND #PWR0101
U 1 1 5CC7C00E
P 4950 6950
F 0 "#PWR0101" H 4950 6700 50  0001 C CNN
F 1 "GND" H 4955 6777 50  0000 C CNN
F 2 "" H 4950 6950 50  0001 C CNN
F 3 "" H 4950 6950 50  0001 C CNN
	1    4950 6950
	1    0    0    -1  
$EndComp
Wire Wire Line
	5350 6650 7000 6650
Wire Wire Line
	7150 6450 6750 6450
Text Label 5400 4950 2    50   ~ 0
USB_DATA_N
Text Label 5400 4850 2    50   ~ 0
USB_DATA_P
$Comp
L power:GND #PWR0102
U 1 1 5CC2D03F
P 8350 8050
F 0 "#PWR0102" H 8350 7800 50  0001 C CNN
F 1 "GND" H 8355 7877 50  0000 C CNN
F 2 "" H 8350 8050 50  0001 C CNN
F 3 "" H 8350 8050 50  0001 C CNN
	1    8350 8050
	1    0    0    -1  
$EndComp
Wire Wire Line
	8450 7850 8450 7950
Wire Wire Line
	8450 7950 8350 7950
Wire Wire Line
	8350 7950 8350 8050
Wire Wire Line
	8250 7850 8250 7950
Wire Wire Line
	8250 7950 8350 7950
Connection ~ 8350 7950
Wire Wire Line
	8350 7850 8350 7950
$Comp
L Device:C C?
U 1 1 5CC5A5AC
P 7400 1900
AR Path="/5D437847/5CC5A5AC" Ref="C?"  Part="1" 
AR Path="/5CC2278C/5CC5A5AC" Ref="C?"  Part="1" 
AR Path="/5D420BF5/5CC5A5AC" Ref="C178"  Part="1" 
AR Path="/5CC5A5AC" Ref="C178"  Part="1" 
F 0 "C178" H 7285 1991 50  0000 R CNN
F 1 "0.1uF" H 7285 1900 50  0000 R CNN
F 2 "Capacitor_SMD:C_0402_1005Metric" H 7438 1750 50  0001 C CNN
F 3 "~" H 7400 1900 50  0001 C CNN
F 4 "25 V" H 7285 1809 50  0000 R CNN "voltage"
F 5 "AVT-IPE" H 7400 1900 50  0001 C CNN "stock"
	1    7400 1900
	-1   0    0    -1  
$EndComp
$Comp
L power:GND #PWR?
U 1 1 5CC5A5CF
P 7400 2050
AR Path="/5D437847/5CC5A5CF" Ref="#PWR?"  Part="1" 
AR Path="/5CC2278C/5CC5A5CF" Ref="#PWR?"  Part="1" 
AR Path="/5D420BF5/5CC5A5CF" Ref="#PWR?"  Part="1" 
AR Path="/5CC5A5CF" Ref="#PWR0103"  Part="1" 
F 0 "#PWR0103" H 7400 1800 50  0001 C CNN
F 1 "GND" H 7405 1877 50  0000 C CNN
F 2 "" H 7400 2050 50  0001 C CNN
F 3 "" H 7400 2050 50  0001 C CNN
	1    7400 2050
	1    0    0    -1  
$EndComp
Text Label 6950 1700 0    50   ~ 0
USB_VPHY
Text Label 6950 2900 0    50   ~ 0
USB_VPLL
Wire Wire Line
	7050 5350 7150 5350
$Comp
L Device:R R57
U 1 1 5CC7E788
P 6150 6200
F 0 "R57" H 6220 6246 50  0000 L CNN
F 1 "10k" H 6220 6155 50  0000 L CNN
F 2 "Resistor_SMD:R_0402_1005Metric" V 6080 6200 50  0001 C CNN
F 3 "~" H 6150 6200 50  0001 C CNN
F 4 "1%" H 6150 6200 50  0001 C CNN "tolerance"
F 5 "AVT-IPE" H 6150 6200 50  0001 C CNN "stock"
	1    6150 6200
	1    0    0    -1  
$EndComp
$Comp
L Device:R R60
U 1 1 5CC7E469
P 6750 6200
F 0 "R60" H 6820 6246 50  0000 L CNN
F 1 "10k" H 6820 6155 50  0000 L CNN
F 2 "Resistor_SMD:R_0402_1005Metric" V 6680 6200 50  0001 C CNN
F 3 "~" H 6750 6200 50  0001 C CNN
F 4 "1%" H 6750 6200 50  0001 C CNN "tolerance"
F 5 "AVT-IPE" H 6750 6200 50  0001 C CNN "stock"
	1    6750 6200
	1    0    0    -1  
$EndComp
$Comp
L Device:R R59
U 1 1 5CC7C601
P 6450 6200
F 0 "R59" H 6520 6246 50  0000 L CNN
F 1 "10k" H 6520 6155 50  0000 L CNN
F 2 "Resistor_SMD:R_0402_1005Metric" V 6380 6200 50  0001 C CNN
F 3 "~" H 6450 6200 50  0001 C CNN
F 4 "1%" H 6450 6200 50  0001 C CNN "tolerance"
F 5 "AVT-IPE" H 6450 6200 50  0001 C CNN "stock"
	1    6450 6200
	1    0    0    -1  
$EndComp
Wire Wire Line
	6750 6350 6750 6450
Wire Wire Line
	6450 6350 6450 6550
Wire Wire Line
	6150 6750 6150 6350
$Comp
L power:GND #PWR0104
U 1 1 5CCDF7A2
P 7050 7600
F 0 "#PWR0104" H 7050 7350 50  0001 C CNN
F 1 "GND" H 7055 7427 50  0000 C CNN
F 2 "" H 7050 7600 50  0001 C CNN
F 3 "" H 7050 7600 50  0001 C CNN
	1    7050 7600
	1    0    0    -1  
$EndComp
Wire Wire Line
	10500 4750 9550 4750
Wire Wire Line
	9550 4850 10400 4850
Wire Wire Line
	10400 4850 10400 6450
Text Label 10550 6450 0    50   ~ 0
UART0_RXD_I
Text Label 10150 4150 2    50   ~ 0
FT4232_TMS
Text Label 10150 3950 2    50   ~ 0
FT4232_TDI
Text Label 10150 3850 2    50   ~ 0
FT4232_TCK
$Comp
L Device:R R66
U 1 1 5CE790ED
P 10350 3650
F 0 "R66" H 10420 3696 50  0000 L CNN
F 1 "DNP" H 10420 3605 50  0000 L CNN
F 2 "KIT_Resistor_SMD:R_0402_1005Metric_DNP" V 10280 3650 50  0001 C CNN
F 3 "~" H 10350 3650 50  0001 C CNN
F 4 "DNP" H 10350 3650 50  0001 C CNN "DNP"
	1    10350 3650
	1    0    0    -1  
$EndComp
Wire Wire Line
	10350 3800 10350 4050
Wire Wire Line
	10350 4050 9550 4050
Text Label 10150 4050 2    50   ~ 0
FT4232_TDO
NoConn ~ 9550 4350
NoConn ~ 9550 4950
NoConn ~ 9550 5050
NoConn ~ 9550 5150
NoConn ~ 9550 5250
NoConn ~ 9550 5350
NoConn ~ 9550 5450
NoConn ~ 9550 6050
NoConn ~ 9550 6150
NoConn ~ 9550 6250
NoConn ~ 9550 6350
NoConn ~ 9550 7450
NoConn ~ 9550 7550
Wire Wire Line
	10700 4400 10000 4400
Wire Wire Line
	10000 4400 10000 4450
Wire Wire Line
	10000 4450 9550 4450
Wire Wire Line
	9550 4550 10000 4550
Wire Wire Line
	10000 4550 10000 4600
Wire Wire Line
	10000 4600 10700 4600
$Comp
L KIT_Comparator:MAX9100EUK-T U20
U 1 1 5CCCF1AE
P 15000 2000
F 0 "U20" H 15000 2150 50  0000 L CNN
F 1 "MAX9100EUK-T" H 14950 1800 50  0000 L CNN
F 2 "Package_TO_SOT_SMD:SOT-23-5" H 15000 1600 50  0001 C CNN
F 3 "https://www.mouser.de/datasheet/2/256/MAX9100-MAX9101-1291472.pdf." H 15000 2000 50  0001 C CNN
F 4 "MAX9100EUK+TCT-ND" H 15000 2000 50  0001 C CNN "digikey#"
F 5 "Maxim Integrated" H 15000 2000 50  0001 C CNN "manf"
F 6 "MAX9100EUK+T" H 15000 2000 50  0001 C CNN "manf#"
	1    15000 2000
	1    0    0    -1  
$EndComp
$Comp
L Device:R R71
U 1 1 5CCDA3D4
P 14600 2300
F 0 "R71" H 14531 2346 50  0000 R CNN
F 1 "1k" H 14531 2255 50  0000 R CNN
F 2 "Resistor_SMD:R_0402_1005Metric" V 14530 2300 50  0001 C CNN
F 3 "~" H 14600 2300 50  0001 C CNN
F 4 "1%" H 14600 2300 50  0001 C CNN "tolerance"
F 5 "AVT-IPE" H 14600 2300 50  0001 C CNN "stock"
	1    14600 2300
	1    0    0    -1  
$EndComp
$Comp
L power:GND #PWR0106
U 1 1 5CCDAE21
P 14600 2500
F 0 "#PWR0106" H 14600 2250 50  0001 C CNN
F 1 "GND" H 14605 2327 50  0000 C CNN
F 2 "" H 14600 2500 50  0001 C CNN
F 3 "" H 14600 2500 50  0001 C CNN
	1    14600 2500
	1    0    0    -1  
$EndComp
Wire Wire Line
	14600 2500 14600 2450
Wire Wire Line
	14700 2100 14600 2100
Wire Wire Line
	14600 2150 14600 2100
Connection ~ 14600 2100
Wire Wire Line
	14600 2100 14500 2100
$Comp
L power:GND #PWR0107
U 1 1 5CCECEE9
P 14900 2500
F 0 "#PWR0107" H 14900 2250 50  0001 C CNN
F 1 "GND" H 14905 2327 50  0000 C CNN
F 2 "" H 14900 2500 50  0001 C CNN
F 3 "" H 14900 2500 50  0001 C CNN
	1    14900 2500
	1    0    0    -1  
$EndComp
Wire Wire Line
	14900 2500 14900 2300
Text Label 15900 2000 2    50   ~ 0
VCCO_JTAG_ON
Text Label 10150 4250 2    50   ~ 0
VCCO_JTAG_ON
$Comp
L power:GND #PWR?
U 1 1 5D48E8E8
P 6850 2050
AR Path="/5D437847/5D48E8E8" Ref="#PWR?"  Part="1" 
AR Path="/5CC2278C/5D48E8E8" Ref="#PWR?"  Part="1" 
AR Path="/5D420BF5/5D48E8E8" Ref="#PWR?"  Part="1" 
AR Path="/5D48E8E8" Ref="#PWR0108"  Part="1" 
F 0 "#PWR0108" H 6850 1800 50  0001 C CNN
F 1 "GND" H 6855 1877 50  0000 C CNN
F 2 "" H 6850 2050 50  0001 C CNN
F 3 "" H 6850 2050 50  0001 C CNN
	1    6850 2050
	1    0    0    -1  
$EndComp
Wire Wire Line
	6850 1750 6850 1700
Connection ~ 6850 1700
Wire Wire Line
	6850 1700 7400 1700
Wire Wire Line
	7400 1750 7400 1700
$Comp
L Device:C C?
U 1 1 5D4A9CD0
P 7400 3100
AR Path="/5D437847/5D4A9CD0" Ref="C?"  Part="1" 
AR Path="/5CC2278C/5D4A9CD0" Ref="C?"  Part="1" 
AR Path="/5D420BF5/5D4A9CD0" Ref="C179"  Part="1" 
AR Path="/5D4A9CD0" Ref="C179"  Part="1" 
F 0 "C179" H 7285 3191 50  0000 R CNN
F 1 "0.1uF" H 7285 3100 50  0000 R CNN
F 2 "Capacitor_SMD:C_0402_1005Metric" H 7438 2950 50  0001 C CNN
F 3 "~" H 7400 3100 50  0001 C CNN
F 4 "25 V" H 7285 3009 50  0000 R CNN "voltage"
F 5 "AVT-IPE" H 7400 3100 50  0001 C CNN "stock"
	1    7400 3100
	-1   0    0    -1  
$EndComp
$Comp
L power:GND #PWR?
U 1 1 5D4A9CD6
P 7400 3250
AR Path="/5D437847/5D4A9CD6" Ref="#PWR?"  Part="1" 
AR Path="/5CC2278C/5D4A9CD6" Ref="#PWR?"  Part="1" 
AR Path="/5D420BF5/5D4A9CD6" Ref="#PWR?"  Part="1" 
AR Path="/5D4A9CD6" Ref="#PWR0109"  Part="1" 
F 0 "#PWR0109" H 7400 3000 50  0001 C CNN
F 1 "GND" H 7405 3077 50  0000 C CNN
F 2 "" H 7400 3250 50  0001 C CNN
F 3 "" H 7400 3250 50  0001 C CNN
	1    7400 3250
	1    0    0    -1  
$EndComp
$Comp
L power:GND #PWR?
U 1 1 5D4A9CE2
P 6850 3250
AR Path="/5D437847/5D4A9CE2" Ref="#PWR?"  Part="1" 
AR Path="/5CC2278C/5D4A9CE2" Ref="#PWR?"  Part="1" 
AR Path="/5D420BF5/5D4A9CE2" Ref="#PWR?"  Part="1" 
AR Path="/5D4A9CE2" Ref="#PWR0110"  Part="1" 
F 0 "#PWR0110" H 6850 3000 50  0001 C CNN
F 1 "GND" H 6855 3077 50  0000 C CNN
F 2 "" H 6850 3250 50  0001 C CNN
F 3 "" H 6850 3250 50  0001 C CNN
	1    6850 3250
	1    0    0    -1  
$EndComp
Wire Wire Line
	6850 2950 6850 2900
Connection ~ 6850 2900
Wire Wire Line
	6850 2900 7400 2900
Wire Wire Line
	7400 2950 7400 2900
Wire Wire Line
	7850 3550 7850 1700
Wire Wire Line
	7850 1700 7400 1700
Connection ~ 7400 1700
Wire Wire Line
	7950 3550 7950 2900
Wire Wire Line
	7950 2900 7400 2900
Connection ~ 7400 2900
$Comp
L Device:C C?
U 1 1 5D59DB96
P 6000 4250
AR Path="/5D437847/5D59DB96" Ref="C?"  Part="1" 
AR Path="/5CC2278C/5D59DB96" Ref="C?"  Part="1" 
AR Path="/5D420BF5/5D59DB96" Ref="C172"  Part="1" 
AR Path="/5D59DB96" Ref="C172"  Part="1" 
F 0 "C172" H 6115 4341 50  0000 L CNN
F 1 "0.1uF" H 6115 4250 50  0000 L CNN
F 2 "Capacitor_SMD:C_0402_1005Metric" H 6038 4100 50  0001 C CNN
F 3 "~" H 6000 4250 50  0001 C CNN
F 4 "25 V" H 6115 4159 50  0000 L CNN "voltage"
F 5 "AVT-IPE" H 6000 4250 50  0001 C CNN "stock"
	1    6000 4250
	1    0    0    -1  
$EndComp
$Comp
L Device:C C?
U 1 1 5D5A5AC6
P 6500 4250
AR Path="/5D437847/5D5A5AC6" Ref="C?"  Part="1" 
AR Path="/5CC2278C/5D5A5AC6" Ref="C?"  Part="1" 
AR Path="/5D420BF5/5D5A5AC6" Ref="C173"  Part="1" 
AR Path="/5D5A5AC6" Ref="C173"  Part="1" 
F 0 "C173" H 6615 4341 50  0000 L CNN
F 1 "0.1uF" H 6615 4250 50  0000 L CNN
F 2 "Capacitor_SMD:C_0402_1005Metric" H 6538 4100 50  0001 C CNN
F 3 "~" H 6500 4250 50  0001 C CNN
F 4 "25 V" H 6615 4159 50  0000 L CNN "voltage"
F 5 "AVT-IPE" H 6500 4250 50  0001 C CNN "stock"
	1    6500 4250
	1    0    0    -1  
$EndComp
$Comp
L power:GND #PWR0111
U 1 1 5D5A6B89
P 6500 4400
F 0 "#PWR0111" H 6500 4150 50  0001 C CNN
F 1 "GND" H 6505 4227 50  0000 C CNN
F 2 "" H 6500 4400 50  0001 C CNN
F 3 "" H 6500 4400 50  0001 C CNN
	1    6500 4400
	1    0    0    -1  
$EndComp
$Comp
L power:GND #PWR0112
U 1 1 5D5A6D8A
P 6000 4400
F 0 "#PWR0112" H 6000 4150 50  0001 C CNN
F 1 "GND" H 6005 4227 50  0000 C CNN
F 2 "" H 6000 4400 50  0001 C CNN
F 3 "" H 6000 4400 50  0001 C CNN
	1    6000 4400
	1    0    0    -1  
$EndComp
Wire Wire Line
	8300 3550 8300 3500
Wire Wire Line
	8300 3500 8200 3500
Wire Wire Line
	8200 3500 8200 3550
Wire Wire Line
	8750 3500 8750 3550
Wire Wire Line
	8650 3550 8650 3500
$Comp
L Device:C C?
U 1 1 5D5FDC94
P 8600 1850
AR Path="/5D437847/5D5FDC94" Ref="C?"  Part="1" 
AR Path="/5CC2278C/5D5FDC94" Ref="C?"  Part="1" 
AR Path="/5D420BF5/5D5FDC94" Ref="C164"  Part="1" 
AR Path="/5D5FDC94" Ref="C164"  Part="1" 
F 0 "C164" H 8715 1941 50  0000 L CNN
F 1 "0.1uF" H 8715 1850 50  0000 L CNN
F 2 "Capacitor_SMD:C_0402_1005Metric" H 8638 1700 50  0001 C CNN
F 3 "~" H 8600 1850 50  0001 C CNN
F 4 "25 V" H 8715 1759 50  0000 L CNN "voltage"
F 5 "AVT-IPE" H 8600 1850 50  0001 C CNN "stock"
	1    8600 1850
	1    0    0    -1  
$EndComp
$Comp
L Device:C C?
U 1 1 5D5FDC9B
P 9100 1850
AR Path="/5D437847/5D5FDC9B" Ref="C?"  Part="1" 
AR Path="/5CC2278C/5D5FDC9B" Ref="C?"  Part="1" 
AR Path="/5D420BF5/5D5FDC9B" Ref="C166"  Part="1" 
AR Path="/5D5FDC9B" Ref="C166"  Part="1" 
F 0 "C166" H 9215 1941 50  0000 L CNN
F 1 "0.1uF" H 9215 1850 50  0000 L CNN
F 2 "Capacitor_SMD:C_0402_1005Metric" H 9138 1700 50  0001 C CNN
F 3 "~" H 9100 1850 50  0001 C CNN
F 4 "25 V" H 9215 1759 50  0000 L CNN "voltage"
F 5 "AVT-IPE" H 9100 1850 50  0001 C CNN "stock"
	1    9100 1850
	1    0    0    -1  
$EndComp
$Comp
L power:GND #PWR0113
U 1 1 5D5FDCA1
P 9100 2000
F 0 "#PWR0113" H 9100 1750 50  0001 C CNN
F 1 "GND" H 9105 1827 50  0000 C CNN
F 2 "" H 9100 2000 50  0001 C CNN
F 3 "" H 9100 2000 50  0001 C CNN
	1    9100 2000
	1    0    0    -1  
$EndComp
$Comp
L power:GND #PWR0114
U 1 1 5D5FDCA7
P 8600 2000
F 0 "#PWR0114" H 8600 1750 50  0001 C CNN
F 1 "GND" H 8605 1827 50  0000 C CNN
F 2 "" H 8600 2000 50  0001 C CNN
F 3 "" H 8600 2000 50  0001 C CNN
	1    8600 2000
	1    0    0    -1  
$EndComp
$Comp
L Device:C C?
U 1 1 5D605210
P 9600 1850
AR Path="/5D437847/5D605210" Ref="C?"  Part="1" 
AR Path="/5CC2278C/5D605210" Ref="C?"  Part="1" 
AR Path="/5D420BF5/5D605210" Ref="C168"  Part="1" 
AR Path="/5D605210" Ref="C168"  Part="1" 
F 0 "C168" H 9715 1941 50  0000 L CNN
F 1 "0.1uF" H 9715 1850 50  0000 L CNN
F 2 "Capacitor_SMD:C_0402_1005Metric" H 9638 1700 50  0001 C CNN
F 3 "~" H 9600 1850 50  0001 C CNN
F 4 "25 V" H 9715 1759 50  0000 L CNN "voltage"
F 5 "AVT-IPE" H 9600 1850 50  0001 C CNN "stock"
	1    9600 1850
	1    0    0    -1  
$EndComp
$Comp
L power:GND #PWR0115
U 1 1 5D605216
P 9600 2000
F 0 "#PWR0115" H 9600 1750 50  0001 C CNN
F 1 "GND" H 9605 1827 50  0000 C CNN
F 2 "" H 9600 2000 50  0001 C CNN
F 3 "" H 9600 2000 50  0001 C CNN
	1    9600 2000
	1    0    0    -1  
$EndComp
Wire Wire Line
	9600 1650 9100 1650
Wire Wire Line
	9600 1700 9600 1650
Wire Wire Line
	8600 1650 8600 1600
Wire Wire Line
	9100 1700 9100 1650
Connection ~ 9100 1650
Wire Wire Line
	9100 1650 8600 1650
Wire Wire Line
	8600 1700 8600 1650
Wire Wire Line
	8750 3500 8650 3500
Wire Wire Line
	8550 3500 8550 3550
Connection ~ 8650 3500
Wire Wire Line
	8650 3500 8550 3500
$Comp
L Device:R R70
U 1 1 5D65E855
P 14350 2100
F 0 "R70" V 14143 2100 50  0000 C CNN
F 1 "2k" V 14234 2100 50  0000 C CNN
F 2 "Resistor_SMD:R_0402_1005Metric" V 14280 2100 50  0001 C CNN
F 3 "~" H 14350 2100 50  0001 C CNN
F 4 "1%" H 14350 2100 50  0001 C CNN "tolerance"
F 5 "AVT-IPE" H 14350 2100 50  0001 C CNN "stock"
	1    14350 2100
	0    1    1    0   
$EndComp
Wire Wire Line
	14200 2100 13800 2100
Wire Wire Line
	13800 2100 13800 2050
Wire Wire Line
	14550 1900 14700 1900
$Comp
L Device:R R62
U 1 1 5D6A556E
P 6900 5350
F 0 "R62" V 6950 5550 50  0000 C CNN
F 1 "1k" V 6950 5150 50  0000 C CNN
F 2 "Resistor_SMD:R_0402_1005Metric" V 6830 5350 50  0001 C CNN
F 3 "~" H 6900 5350 50  0001 C CNN
F 4 "1%" H 6900 5350 50  0001 C CNN "tolerance"
F 5 "AVT-IPE" H 6900 5350 50  0001 C CNN "stock"
	1    6900 5350
	0    1    -1   0   
$EndComp
Wire Wire Line
	5450 6450 5450 6050
Wire Wire Line
	5450 6050 4450 6050
Wire Wire Line
	4450 6050 4450 6550
Wire Wire Line
	4450 6550 4550 6550
Text Label 5600 6450 0    50   ~ 0
EECS
Text Label 5600 6550 0    50   ~ 0
EECLK
Text Label 5600 6650 0    50   ~ 0
EEDATA
Text Label 5600 6750 0    50   ~ 0
EEDATA_R
$Comp
L Device:C C174
U 1 1 5D6F86C3
P 6550 7550
F 0 "C174" H 6665 7596 50  0000 L CNN
F 1 "27pF" H 6665 7505 50  0000 L CNN
F 2 "Capacitor_SMD:C_0402_1005Metric" H 6588 7400 50  0001 C CNN
F 3 "~" H 6550 7550 50  0001 C CNN
F 4 "50 V" H 6550 7550 50  0001 C CNN "voltage"
F 5 "915-5544" H 6550 7550 50  0001 C CNN "rs#"
	1    6550 7550
	1    0    0    -1  
$EndComp
$Comp
L Device:C C169
U 1 1 5D6F86C9
P 5550 7350
F 0 "C169" H 5664 7396 50  0000 L CNN
F 1 "27pF" H 5664 7305 50  0000 L CNN
F 2 "Capacitor_SMD:C_0402_1005Metric" H 5588 7200 50  0001 C CNN
F 3 "~" H 5550 7350 50  0001 C CNN
F 4 "50 V" H 5550 7350 50  0001 C CNN "voltage"
F 5 "915-5544" H 5550 7350 50  0001 C CNN "rs#"
	1    5550 7350
	-1   0    0    -1  
$EndComp
$Comp
L Device:Crystal_GND24 Y1
U 1 1 5D6F86DB
P 6150 7150
F 0 "Y1" V 5900 7200 50  0000 R CNN
F 1 "12 MHz" V 5800 7300 50  0000 R CNN
F 2 "KIT_Crystal:Crystal_SMD_2520-4Pin_2.5x2.0mm" H 6150 7150 50  0001 C CNN
F 3 "https://abracon.com/AIGcrystals/ABM10AIG.pdf" H 6150 7150 50  0001 C CNN
F 4 "1253-1714-1-ND" H 6150 7150 50  0001 C CNN "digikey#"
F 5 "12MHz ±10ppm Crystal 12pF 150 Ohms 4-SMD, No Lead" H 6150 7150 50  0001 C CNN "info"
F 6 "Kyocera International Inc. Electronic Components" H 6150 7150 50  0001 C CNN "manf"
F 7 "CX2520DB12000H0FLJC1" H 6150 7150 50  0001 C CNN "manf#"
	1    6150 7150
	0    -1   -1   0   
$EndComp
Wire Wire Line
	6150 6950 6150 7000
Wire Wire Line
	6150 7300 6150 7350
Wire Wire Line
	6150 7350 6550 7350
Wire Wire Line
	6550 7400 6550 7350
Wire Wire Line
	5550 7200 5550 6950
Wire Wire Line
	5550 6950 6150 6950
Connection ~ 6150 6950
$Comp
L power:GND #PWR0116
U 1 1 5D74C4E1
P 6550 7050
F 0 "#PWR0116" H 6550 6800 50  0001 C CNN
F 1 "GND" H 6555 6877 50  0000 C CNN
F 2 "" H 6550 7050 50  0001 C CNN
F 3 "" H 6550 7050 50  0001 C CNN
	1    6550 7050
	1    0    0    -1  
$EndComp
Wire Wire Line
	6550 7050 6400 7050
$Comp
L power:GND #PWR0117
U 1 1 5D77287B
P 5750 7050
F 0 "#PWR0117" H 5750 6800 50  0001 C CNN
F 1 "GND" H 5755 6877 50  0000 C CNN
F 2 "" H 5750 7050 50  0001 C CNN
F 3 "" H 5750 7050 50  0001 C CNN
	1    5750 7050
	-1   0    0    -1  
$EndComp
Wire Wire Line
	5750 7050 5900 7050
Wire Wire Line
	5900 7050 5900 7150
Wire Wire Line
	5900 7150 5950 7150
$Comp
L power:GND #PWR0118
U 1 1 5D77C892
P 5550 7500
F 0 "#PWR0118" H 5550 7250 50  0001 C CNN
F 1 "GND" H 5555 7327 50  0000 C CNN
F 2 "" H 5550 7500 50  0001 C CNN
F 3 "" H 5550 7500 50  0001 C CNN
	1    5550 7500
	1    0    0    -1  
$EndComp
$Comp
L power:GND #PWR0119
U 1 1 5D77CBB1
P 6550 7700
F 0 "#PWR0119" H 6550 7450 50  0001 C CNN
F 1 "GND" H 6555 7527 50  0000 C CNN
F 2 "" H 6550 7700 50  0001 C CNN
F 3 "" H 6550 7700 50  0001 C CNN
	1    6550 7700
	1    0    0    -1  
$EndComp
Wire Wire Line
	7150 4950 6650 4950
Wire Wire Line
	5600 4850 6350 4850
Connection ~ 6150 6750
Wire Wire Line
	6150 6750 6250 6750
Connection ~ 6450 6550
Wire Wire Line
	6450 6550 7150 6550
Connection ~ 6750 6450
Wire Wire Line
	5450 6450 6750 6450
Wire Wire Line
	5350 6550 6450 6550
Wire Wire Line
	5350 6750 6150 6750
Wire Wire Line
	6650 5350 6750 5350
Wire Wire Line
	7050 5150 7150 5150
$Comp
L power:GND #PWR0120
U 1 1 5D8BED83
P 6200 5150
F 0 "#PWR0120" H 6200 4900 50  0001 C CNN
F 1 "GND" H 6205 4977 50  0000 C CNN
F 2 "" H 6200 5150 50  0001 C CNN
F 3 "" H 6200 5150 50  0001 C CNN
	1    6200 5150
	1    0    0    -1  
$EndComp
$Comp
L Device:C C?
U 1 1 5DA238AC
P 4000 6750
AR Path="/5D437847/5DA238AC" Ref="C?"  Part="1" 
AR Path="/5CC2278C/5DA238AC" Ref="C?"  Part="1" 
AR Path="/5D420BF5/5DA238AC" Ref="C163"  Part="1" 
AR Path="/5DA238AC" Ref="C163"  Part="1" 
F 0 "C163" H 4115 6841 50  0000 L CNN
F 1 "0.1uF" H 4115 6750 50  0000 L CNN
F 2 "Capacitor_SMD:C_0402_1005Metric" H 4038 6600 50  0001 C CNN
F 3 "~" H 4000 6750 50  0001 C CNN
F 4 "25 V" H 4115 6659 50  0000 L CNN "voltage"
F 5 "AVT-IPE" H 4000 6750 50  0001 C CNN "stock"
	1    4000 6750
	1    0    0    -1  
$EndComp
$Comp
L power:GND #PWR0122
U 1 1 5DA238B2
P 4000 6900
F 0 "#PWR0122" H 4000 6650 50  0001 C CNN
F 1 "GND" H 4005 6727 50  0000 C CNN
F 2 "" H 4000 6900 50  0001 C CNN
F 3 "" H 4000 6900 50  0001 C CNN
	1    4000 6900
	1    0    0    -1  
$EndComp
$Comp
L Device:C C?
U 1 1 5DA3C277
P 15300 1450
AR Path="/5D437847/5DA3C277" Ref="C?"  Part="1" 
AR Path="/5CC2278C/5DA3C277" Ref="C?"  Part="1" 
AR Path="/5D420BF5/5DA3C277" Ref="C187"  Part="1" 
AR Path="/5DA3C277" Ref="C187"  Part="1" 
F 0 "C187" H 15415 1541 50  0000 L CNN
F 1 "0.1uF" H 15415 1450 50  0000 L CNN
F 2 "Capacitor_SMD:C_0402_1005Metric" H 15338 1300 50  0001 C CNN
F 3 "~" H 15300 1450 50  0001 C CNN
F 4 "25 V" H 15415 1359 50  0000 L CNN "voltage"
F 5 "AVT-IPE" H 15300 1450 50  0001 C CNN "stock"
	1    15300 1450
	1    0    0    -1  
$EndComp
$Comp
L power:GND #PWR0123
U 1 1 5DA3C27D
P 15300 1600
F 0 "#PWR0123" H 15300 1350 50  0001 C CNN
F 1 "GND" H 15305 1427 50  0000 C CNN
F 2 "" H 15300 1600 50  0001 C CNN
F 3 "" H 15300 1600 50  0001 C CNN
	1    15300 1600
	1    0    0    -1  
$EndComp
Wire Wire Line
	15900 2000 15300 2000
Wire Wire Line
	10150 3850 9550 3850
Wire Wire Line
	9550 3950 10150 3950
Wire Wire Line
	10150 4150 9550 4150
Wire Wire Line
	9550 4250 10150 4250
Wire Wire Line
	7150 6950 6150 6950
Wire Wire Line
	6550 7350 7150 7350
Connection ~ 6550 7350
Wire Wire Line
	7050 7600 7050 7550
Wire Wire Line
	7050 7550 7150 7550
NoConn ~ 4750 10300
Wire Wire Line
	4200 10400 4200 10500
Connection ~ 4200 10400
Wire Wire Line
	4250 10400 4200 10400
Wire Wire Line
	4200 10300 4200 10400
Connection ~ 4200 10300
Wire Wire Line
	4250 10300 4200 10300
Wire Wire Line
	4200 10200 4200 10300
Connection ~ 4200 10200
Wire Wire Line
	4250 10200 4200 10200
Wire Wire Line
	4200 10100 4200 10200
Connection ~ 4200 10100
Wire Wire Line
	4250 10100 4200 10100
Wire Wire Line
	4250 9900 4200 9900
Connection ~ 4200 9900
Wire Wire Line
	4200 9800 4200 9900
Wire Wire Line
	4250 9800 4200 9800
$Comp
L power:GND #PWR?
U 1 1 5DD93667
P 4200 10500
AR Path="/5B0FAF01/5DD93667" Ref="#PWR?"  Part="1" 
AR Path="/5DB4439F/5DD93667" Ref="#PWR?"  Part="1" 
AR Path="/5EED0E2A/5DD93667" Ref="#PWR?"  Part="1" 
AR Path="/5CFE1CA6/5DD93667" Ref="#PWR?"  Part="1" 
AR Path="/5D420BF5/5DD93667" Ref="#PWR?"  Part="1" 
AR Path="/5DD93667" Ref="#PWR0126"  Part="1" 
F 0 "#PWR0126" H 4200 10250 50  0001 C CNN
F 1 "GND" H 4205 10327 50  0000 C CNN
F 2 "" H 4200 10500 50  0001 C CNN
F 3 "" H 4200 10500 50  0001 C CNN
	1    4200 10500
	1    0    0    -1  
$EndComp
Wire Wire Line
	4200 9900 4200 10000
Wire Wire Line
	4200 10000 4200 10100
Connection ~ 4200 10000
Wire Wire Line
	4250 10000 4200 10000
$Comp
L Connector_Generic:Conn_02x07_Odd_Even J?
U 1 1 5DD93675
P 4450 10100
AR Path="/5B0FAF01/5DD93675" Ref="J?"  Part="1" 
AR Path="/5DB4439F/5DD93675" Ref="J?"  Part="1" 
AR Path="/5EED0E2A/5DD93675" Ref="J?"  Part="1" 
AR Path="/5CFE1CA6/5DD93675" Ref="J?"  Part="1" 
AR Path="/5D420BF5/5DD93675" Ref="J7"  Part="1" 
AR Path="/5DD93675" Ref="J7"  Part="1" 
F 0 "J7" H 4450 10500 50  0000 L CNN
F 1 "Xilinx_JTAG_Conn" H 4350 9700 50  0000 L CNN
F 2 "KIT_Connector:MOLEX_87831-1420_1x07_P2.00_Vertical" H 4450 10100 50  0001 C CNN
F 3 "https://www.molex.com/pdm_docs/sd/878311420_sd.pdf" H 4450 10100 50  0001 C CNN
F 4 "87831-1420" H 4450 10100 50  0001 C CNN "manf#"
F 5 "Molex" H 4450 10100 50  0001 C CNN "manf"
F 6 " 670-0967" H 4450 10100 50  0001 C CNN "rs#"
	1    4450 10100
	1    0    0    -1  
$EndComp
Text Label 6650 9900 2    50   ~ 0
FT4232_TMS
Text Label 6650 10000 2    50   ~ 0
FT4232_TCK
Text Label 6650 10100 2    50   ~ 0
FT4232_TDO
Text Label 6650 10200 2    50   ~ 0
FT4232_TDI
Wire Wire Line
	4750 10400 6650 10400
Text Label 10700 4600 2    50   ~ 0
FT4232_SRST_B
Text Label 10650 4400 2    50   ~ 0
FT4232_MR
Text Label 6700 6950 0    50   ~ 0
OSCI
Wire Wire Line
	6350 7150 6400 7150
Wire Wire Line
	6400 7150 6400 7050
Text Label 6700 7350 0    50   ~ 0
OSCO
$Comp
L Device:C C?
U 1 1 5E2DD28F
P 14250 1450
AR Path="/5D437847/5E2DD28F" Ref="C?"  Part="1" 
AR Path="/5CC2278C/5E2DD28F" Ref="C?"  Part="1" 
AR Path="/5D420BF5/5E2DD28F" Ref="C184"  Part="1" 
AR Path="/5E2DD28F" Ref="C184"  Part="1" 
F 0 "C184" H 14364 1541 50  0000 L CNN
F 1 "0.1uF" H 14364 1450 50  0000 L CNN
F 2 "Capacitor_SMD:C_0402_1005Metric" H 14288 1300 50  0001 C CNN
F 3 "~" H 14250 1450 50  0001 C CNN
F 4 "25 V" H 14364 1359 50  0000 L CNN "voltage"
F 5 "AVT-IPE" H 14250 1450 50  0001 C CNN "stock"
	1    14250 1450
	-1   0    0    -1  
$EndComp
$Comp
L power:GND #PWR0129
U 1 1 5E2DD295
P 14250 1600
F 0 "#PWR0129" H 14250 1350 50  0001 C CNN
F 1 "GND" H 14255 1427 50  0000 C CNN
F 2 "" H 14250 1600 50  0001 C CNN
F 3 "" H 14250 1600 50  0001 C CNN
	1    14250 1600
	1    0    0    -1  
$EndComp
Wire Wire Line
	14550 1250 14250 1250
Wire Wire Line
	14250 1250 14250 1200
Wire Wire Line
	14550 1250 14550 1900
Wire Wire Line
	14250 1300 14250 1250
Connection ~ 14250 1250
NoConn ~ 9550 5850
NoConn ~ 9550 5950
Wire Wire Line
	10500 6150 11250 6150
Wire Wire Line
	10400 6450 11250 6450
Wire Wire Line
	8550 7850 8550 7950
Wire Wire Line
	8550 7950 8450 7950
Connection ~ 8450 7950
Wire Wire Line
	8200 3400 8200 3500
Connection ~ 8200 3500
Wire Wire Line
	6000 4000 6000 4050
Wire Wire Line
	6000 4050 6500 4050
Wire Wire Line
	6500 4050 6500 4100
Connection ~ 6000 4050
Wire Wire Line
	6000 4050 6000 4100
$Comp
L power:GND #PWR?
U 1 1 5D51DDD4
P 2350 3250
AR Path="/5D437847/5D51DDD4" Ref="#PWR?"  Part="1" 
AR Path="/5CC2278C/5D51DDD4" Ref="#PWR?"  Part="1" 
AR Path="/5D420BF5/5D51DDD4" Ref="#PWR?"  Part="1" 
AR Path="/5D51DDD4" Ref="#PWR0133"  Part="1" 
F 0 "#PWR0133" H 2350 3000 50  0001 C CNN
F 1 "GND" H 2355 3077 50  0000 C CNN
F 2 "" H 2350 3250 50  0001 C CNN
F 3 "" H 2350 3250 50  0001 C CNN
	1    2350 3250
	-1   0    0    -1  
$EndComp
$Comp
L power:GND #PWR?
U 1 1 5D5399C2
P 1250 3250
AR Path="/5D437847/5D5399C2" Ref="#PWR?"  Part="1" 
AR Path="/5CC2278C/5D5399C2" Ref="#PWR?"  Part="1" 
AR Path="/5D420BF5/5D5399C2" Ref="#PWR?"  Part="1" 
AR Path="/5D5399C2" Ref="#PWR0134"  Part="1" 
F 0 "#PWR0134" H 1250 3000 50  0001 C CNN
F 1 "GND" H 1255 3077 50  0000 C CNN
F 2 "" H 1250 3250 50  0001 C CNN
F 3 "" H 1250 3250 50  0001 C CNN
	1    1250 3250
	1    0    0    -1  
$EndComp
$Comp
L power:GND #PWR0135
U 1 1 5D5650AD
P 1900 3250
F 0 "#PWR0135" H 1900 3000 50  0001 C CNN
F 1 "GND" H 1905 3077 50  0000 C CNN
F 2 "" H 1900 3250 50  0001 C CNN
F 3 "" H 1900 3250 50  0001 C CNN
	1    1900 3250
	1    0    0    -1  
$EndComp
Wire Wire Line
	1600 2850 1500 2850
Wire Wire Line
	1500 2850 1500 2750
Wire Wire Line
	1500 2750 1600 2750
Wire Wire Line
	1250 2950 1250 2750
Wire Wire Line
	1250 2750 1500 2750
Connection ~ 1500 2750
Wire Wire Line
	2200 2750 2350 2750
Wire Wire Line
	2350 2750 2350 2950
Connection ~ 2350 2750
$Comp
L KIT_Power:+5V_USB_VBUS #PWR0136
U 1 1 5D6038C0
P 1250 2600
F 0 "#PWR0136" H 1250 2450 50  0001 C CNN
F 1 "+5V_USB_VBUS" H 1265 2773 50  0000 C CNN
F 2 "" H 1250 2600 50  0001 C CNN
F 3 "" H 1250 2600 50  0001 C CNN
	1    1250 2600
	1    0    0    -1  
$EndComp
Wire Wire Line
	1250 2600 1250 2750
Connection ~ 1250 2750
Wire Wire Line
	6650 5350 6650 5700
Wire Wire Line
	6200 5150 6750 5150
Wire Wire Line
	6750 6050 6750 6000
Wire Wire Line
	6750 6000 6450 6000
Wire Wire Line
	6150 6000 6150 5950
Wire Wire Line
	6150 6050 6150 6000
Connection ~ 6150 6000
Wire Wire Line
	6450 6050 6450 6000
Connection ~ 6450 6000
Wire Wire Line
	6450 6000 6150 6000
Wire Wire Line
	7100 3800 7100 3850
Wire Wire Line
	7100 3850 7150 3850
$Comp
L Device:C C?
U 1 1 5D6A398A
P 1950 1450
AR Path="/5D89F97F/5D6A398A" Ref="C?"  Part="1" 
AR Path="/5D9727DE/5D6A398A" Ref="C?"  Part="1" 
AR Path="/5D420BF5/5D6A398A" Ref="C167"  Part="1" 
AR Path="/5D6A398A" Ref="C167"  Part="1" 
F 0 "C167" H 2065 1541 50  0000 L CNN
F 1 "1uF" H 2065 1450 50  0000 L CNN
F 2 "Capacitor_SMD:C_0402_1005Metric" H 1988 1300 50  0001 C CNN
F 3 "~" H 1950 1450 50  0001 C CNN
F 4 "16 V" H 2065 1359 50  0000 L CNN "voltage"
F 5 "AVT-IPE" H 1950 1450 50  0001 C CNN "stock"
	1    1950 1450
	1    0    0    -1  
$EndComp
$Comp
L Device:C C?
U 1 1 5D6D1A9D
P 2500 1450
AR Path="/5D437847/5D6D1A9D" Ref="C?"  Part="1" 
AR Path="/5CC2278C/5D6D1A9D" Ref="C?"  Part="1" 
AR Path="/5D420BF5/5D6D1A9D" Ref="C171"  Part="1" 
AR Path="/5D6D1A9D" Ref="C171"  Part="1" 
F 0 "C171" H 2615 1541 50  0000 L CNN
F 1 "0.1uF" H 2615 1450 50  0000 L CNN
F 2 "Capacitor_SMD:C_0402_1005Metric" H 2538 1300 50  0001 C CNN
F 3 "~" H 2500 1450 50  0001 C CNN
F 4 "25 V" H 2615 1359 50  0000 L CNN "voltage"
F 5 "AVT-IPE" H 2500 1450 50  0001 C CNN "stock"
	1    2500 1450
	1    0    0    -1  
$EndComp
$Comp
L power:GND #PWR?
U 1 1 5D6D1AA3
P 2500 1600
AR Path="/5D437847/5D6D1AA3" Ref="#PWR?"  Part="1" 
AR Path="/5CC2278C/5D6D1AA3" Ref="#PWR?"  Part="1" 
AR Path="/5D420BF5/5D6D1AA3" Ref="#PWR?"  Part="1" 
AR Path="/5D6D1AA3" Ref="#PWR0137"  Part="1" 
F 0 "#PWR0137" H 2500 1350 50  0001 C CNN
F 1 "GND" H 2505 1427 50  0000 C CNN
F 2 "" H 2500 1600 50  0001 C CNN
F 3 "" H 2500 1600 50  0001 C CNN
	1    2500 1600
	1    0    0    -1  
$EndComp
$Comp
L power:GND #PWR?
U 1 1 5D6D1ABB
P 1950 1600
AR Path="/5D437847/5D6D1ABB" Ref="#PWR?"  Part="1" 
AR Path="/5CC2278C/5D6D1ABB" Ref="#PWR?"  Part="1" 
AR Path="/5D420BF5/5D6D1ABB" Ref="#PWR?"  Part="1" 
AR Path="/5D6D1ABB" Ref="#PWR0138"  Part="1" 
F 0 "#PWR0138" H 1950 1350 50  0001 C CNN
F 1 "GND" H 1955 1427 50  0000 C CNN
F 2 "" H 1950 1600 50  0001 C CNN
F 3 "" H 1950 1600 50  0001 C CNN
	1    1950 1600
	1    0    0    -1  
$EndComp
Wire Wire Line
	1950 1300 1950 1250
Connection ~ 1950 1250
Wire Wire Line
	1950 1250 2500 1250
Wire Wire Line
	2500 1300 2500 1250
$Comp
L Device:C C?
U 1 1 5D71D0D0
P 950 1450
AR Path="/5D437847/5D71D0D0" Ref="C?"  Part="1" 
AR Path="/5CC2278C/5D71D0D0" Ref="C?"  Part="1" 
AR Path="/5D420BF5/5D71D0D0" Ref="C165"  Part="1" 
AR Path="/5D71D0D0" Ref="C165"  Part="1" 
F 0 "C165" H 836 1541 50  0000 R CNN
F 1 "1uF" H 836 1450 50  0000 R CNN
F 2 "Capacitor_SMD:C_0402_1005Metric" H 988 1300 50  0001 C CNN
F 3 "~" H 950 1450 50  0001 C CNN
F 4 "16 V" H 836 1359 50  0000 R CNN "voltage"
F 5 "AVT-IPE" H 950 1450 50  0001 C CNN "stock"
	1    950  1450
	1    0    0    -1  
$EndComp
$Comp
L power:GND #PWR?
U 1 1 5D71D0D6
P 950 1600
AR Path="/5D437847/5D71D0D6" Ref="#PWR?"  Part="1" 
AR Path="/5CC2278C/5D71D0D6" Ref="#PWR?"  Part="1" 
AR Path="/5D420BF5/5D71D0D6" Ref="#PWR?"  Part="1" 
AR Path="/5D71D0D6" Ref="#PWR0139"  Part="1" 
F 0 "#PWR0139" H 950 1350 50  0001 C CNN
F 1 "GND" H 955 1427 50  0000 C CNN
F 2 "" H 950 1600 50  0001 C CNN
F 3 "" H 950 1600 50  0001 C CNN
	1    950  1600
	1    0    0    -1  
$EndComp
Wire Wire Line
	950  1300 950  1250
Connection ~ 950  1250
Text Label 550  1100 0    50   ~ 0
USB_VBUS
Wire Wire Line
	950  1100 950  1250
$Comp
L KIT_Power:+5V_USB_VBUS #PWR0140
U 1 1 5D7794E4
P 2500 1200
F 0 "#PWR0140" H 2500 1050 50  0001 C CNN
F 1 "+5V_USB_VBUS" H 2515 1373 50  0000 C CNN
F 2 "" H 2500 1200 50  0001 C CNN
F 3 "" H 2500 1200 50  0001 C CNN
	1    2500 1200
	1    0    0    -1  
$EndComp
Wire Wire Line
	2500 1250 2500 1200
Connection ~ 2500 1250
$Comp
L KIT_Power:+3V3_USB_VCCIO #PWR0141
U 1 1 5D7B2672
P 2350 2600
F 0 "#PWR0141" H 2350 2450 50  0001 C CNN
F 1 "+3V3_USB_VCCIO" H 2365 2773 50  0000 C CNN
F 2 "" H 2350 2600 50  0001 C CNN
F 3 "" H 2350 2600 50  0001 C CNN
	1    2350 2600
	1    0    0    -1  
$EndComp
Wire Wire Line
	2350 2600 2350 2750
$Comp
L KIT_Power:+3V3_USB_VCCIO #PWR0142
U 1 1 5D80627E
P 8600 1600
F 0 "#PWR0142" H 8600 1450 50  0001 C CNN
F 1 "+3V3_USB_VCCIO" H 8615 1773 50  0000 C CNN
F 2 "" H 8600 1600 50  0001 C CNN
F 3 "" H 8600 1600 50  0001 C CNN
	1    8600 1600
	1    0    0    -1  
$EndComp
$Comp
L KIT_Power:+3V3_USB_VCCIO #PWR0143
U 1 1 5D807376
P 7100 3800
F 0 "#PWR0143" H 7100 3650 50  0001 C CNN
F 1 "+3V3_USB_VCCIO" H 7115 3973 50  0000 C CNN
F 2 "" H 7100 3800 50  0001 C CNN
F 3 "" H 7100 3800 50  0001 C CNN
	1    7100 3800
	1    0    0    -1  
$EndComp
$Comp
L KIT_Power:+3V3_USB_VCCIO #PWR0144
U 1 1 5D8075DC
P 8550 3400
F 0 "#PWR0144" H 8550 3250 50  0001 C CNN
F 1 "+3V3_USB_VCCIO" V 8550 3850 50  0000 C CNN
F 2 "" H 8550 3400 50  0001 C CNN
F 3 "" H 8550 3400 50  0001 C CNN
	1    8550 3400
	1    0    0    -1  
$EndComp
Wire Wire Line
	8550 3400 8550 3500
$Comp
L KIT_Power:+3V3_USB_VCCIO #PWR0145
U 1 1 5D82F71D
P 4950 6300
F 0 "#PWR0145" H 4950 6150 50  0001 C CNN
F 1 "+3V3_USB_VCCIO" H 4965 6473 50  0000 C CNN
F 2 "" H 4950 6300 50  0001 C CNN
F 3 "" H 4950 6300 50  0001 C CNN
	1    4950 6300
	1    0    0    -1  
$EndComp
$Comp
L KIT_Power:+3V3_USB_VCCIO #PWR0146
U 1 1 5D8305F2
P 6250 5700
F 0 "#PWR0146" H 6250 5550 50  0001 C CNN
F 1 "+3V3_USB_VCCIO" H 6265 5873 50  0000 C CNN
F 2 "" H 6250 5700 50  0001 C CNN
F 3 "" H 6250 5700 50  0001 C CNN
	1    6250 5700
	1    0    0    -1  
$EndComp
Wire Wire Line
	6250 5700 6650 5700
$Comp
L KIT_Power:+3V3_USB_VCCIO #PWR0147
U 1 1 5D843F80
P 6150 5950
F 0 "#PWR0147" H 6150 5800 50  0001 C CNN
F 1 "+3V3_USB_VCCIO" H 6165 6123 50  0000 C CNN
F 2 "" H 6150 5950 50  0001 C CNN
F 3 "" H 6150 5950 50  0001 C CNN
	1    6150 5950
	1    0    0    -1  
$EndComp
$Comp
L KIT_Power:+1V8_USB_VCORE #PWR0148
U 1 1 5D846EA5
P 6000 4000
F 0 "#PWR0148" H 6000 3850 50  0001 C CNN
F 1 "+1V8_USB_VCORE" H 6015 4173 50  0000 C CNN
F 2 "" H 6000 4000 50  0001 C CNN
F 3 "" H 6000 4000 50  0001 C CNN
	1    6000 4000
	1    0    0    -1  
$EndComp
Wire Wire Line
	7150 4050 6950 4050
Connection ~ 6500 4050
Wire Wire Line
	6950 4100 6950 4050
Connection ~ 6950 4050
Wire Wire Line
	6950 4050 6500 4050
$Comp
L power:GND #PWR0149
U 1 1 5D884D18
P 6950 4400
F 0 "#PWR0149" H 6950 4150 50  0001 C CNN
F 1 "GND" H 6955 4227 50  0000 C CNN
F 2 "" H 6950 4400 50  0001 C CNN
F 3 "" H 6950 4400 50  0001 C CNN
	1    6950 4400
	1    0    0    -1  
$EndComp
$Comp
L KIT_Power:+1V8_USB_VCORE #PWR0150
U 1 1 5D8872E1
P 8200 3400
F 0 "#PWR0150" H 8200 3250 50  0001 C CNN
F 1 "+1V8_USB_VCORE" V 8200 3850 50  0000 C CNN
F 2 "" H 8200 3400 50  0001 C CNN
F 3 "" H 8200 3400 50  0001 C CNN
	1    8200 3400
	1    0    0    -1  
$EndComp
Connection ~ 8550 3500
$Comp
L KIT_Power:+3V3_USB_VCCIO #PWR0151
U 1 1 5D8B6A5B
P 6000 2650
F 0 "#PWR0151" H 6000 2500 50  0001 C CNN
F 1 "+3V3_USB_VCCIO" H 6015 2823 50  0000 C CNN
F 2 "" H 6000 2650 50  0001 C CNN
F 3 "" H 6000 2650 50  0001 C CNN
	1    6000 2650
	1    0    0    -1  
$EndComp
Wire Wire Line
	6000 2650 6000 2900
$Comp
L KIT_Power:+3V3_USB_VCCIO #PWR0152
U 1 1 5D8CAA5E
P 6000 1500
F 0 "#PWR0152" H 6000 1350 50  0001 C CNN
F 1 "+3V3_USB_VCCIO" H 6015 1673 50  0000 C CNN
F 2 "" H 6000 1500 50  0001 C CNN
F 3 "" H 6000 1500 50  0001 C CNN
	1    6000 1500
	1    0    0    -1  
$EndComp
Wire Wire Line
	6000 1500 6000 1700
Connection ~ 8600 1650
$Comp
L KIT_Power:+3V3_USB_VCCIO #PWR0156
U 1 1 5D9977C1
P 15300 1200
F 0 "#PWR0156" H 15300 1050 50  0001 C CNN
F 1 "+3V3_USB_VCCIO" H 15315 1373 50  0000 C CNN
F 2 "" H 15300 1200 50  0001 C CNN
F 3 "" H 15300 1200 50  0001 C CNN
	1    15300 1200
	1    0    0    -1  
$EndComp
Wire Wire Line
	15300 1200 15300 1250
Wire Wire Line
	15300 1250 14900 1250
Wire Wire Line
	14900 1250 14900 1700
Connection ~ 15300 1250
Wire Wire Line
	15300 1250 15300 1300
$Comp
L KIT_Power:+3V3_USB_VCCIO #PWR0157
U 1 1 5D9D56DC
P 13800 2050
F 0 "#PWR0157" H 13800 1900 50  0001 C CNN
F 1 "+3V3_USB_VCCIO" H 13815 2223 50  0000 C CNN
F 2 "" H 13800 2050 50  0001 C CNN
F 3 "" H 13800 2050 50  0001 C CNN
	1    13800 2050
	1    0    0    -1  
$EndComp
$Comp
L Device:C C?
U 1 1 5DA4AD24
P 10100 1850
AR Path="/5D437847/5DA4AD24" Ref="C?"  Part="1" 
AR Path="/5CC2278C/5DA4AD24" Ref="C?"  Part="1" 
AR Path="/5D420BF5/5DA4AD24" Ref="C170"  Part="1" 
AR Path="/5DA4AD24" Ref="C170"  Part="1" 
F 0 "C170" H 10215 1941 50  0000 L CNN
F 1 "0.1uF" H 10215 1850 50  0000 L CNN
F 2 "Capacitor_SMD:C_0402_1005Metric" H 10138 1700 50  0001 C CNN
F 3 "~" H 10100 1850 50  0001 C CNN
F 4 "25 V" H 10215 1759 50  0000 L CNN "voltage"
F 5 "AVT-IPE" H 10100 1850 50  0001 C CNN "stock"
	1    10100 1850
	1    0    0    -1  
$EndComp
$Comp
L power:GND #PWR0158
U 1 1 5DA4AD2A
P 10100 2000
F 0 "#PWR0158" H 10100 1750 50  0001 C CNN
F 1 "GND" H 10105 1827 50  0000 C CNN
F 2 "" H 10100 2000 50  0001 C CNN
F 3 "" H 10100 2000 50  0001 C CNN
	1    10100 2000
	1    0    0    -1  
$EndComp
Wire Wire Line
	10100 1700 10100 1650
Wire Wire Line
	10100 1650 9600 1650
Connection ~ 9600 1650
$Comp
L Device:C C?
U 1 1 5D4B7809
P 6850 3100
AR Path="/5D437847/5D4B7809" Ref="C?"  Part="1" 
AR Path="/5CC2278C/5D4B7809" Ref="C?"  Part="1" 
AR Path="/5D420BF5/5D4B7809" Ref="C177"  Part="1" 
AR Path="/5D4B7809" Ref="C177"  Part="1" 
F 0 "C177" H 6735 3191 50  0000 R CNN
F 1 "4.7uF" H 6735 3100 50  0000 R CNN
F 2 "Capacitor_SMD:C_0603_1608Metric" H 6888 2950 50  0001 C CNN
F 3 "~" H 6850 3100 50  0001 C CNN
F 4 "25 V" H 6735 3009 50  0000 R CNN "voltage"
F 5 "AVT-IPE" H 6850 3100 50  0001 C CNN "stock"
	1    6850 3100
	-1   0    0    -1  
$EndComp
$Comp
L Device:C C?
U 1 1 5D4B8AF2
P 6850 1900
AR Path="/5D437847/5D4B8AF2" Ref="C?"  Part="1" 
AR Path="/5CC2278C/5D4B8AF2" Ref="C?"  Part="1" 
AR Path="/5D420BF5/5D4B8AF2" Ref="C176"  Part="1" 
AR Path="/5D4B8AF2" Ref="C176"  Part="1" 
F 0 "C176" H 6735 1991 50  0000 R CNN
F 1 "4.7uF" H 6735 1900 50  0000 R CNN
F 2 "Capacitor_SMD:C_0603_1608Metric" H 6888 1750 50  0001 C CNN
F 3 "~" H 6850 1900 50  0001 C CNN
F 4 "25 V" H 6735 1809 50  0000 R CNN "voltage"
F 5 "AVT-IPE" H 6850 1900 50  0001 C CNN "stock"
	1    6850 1900
	-1   0    0    -1  
$EndComp
$Comp
L Device:C C?
U 1 1 5D4B9496
P 1250 3100
AR Path="/5D437847/5D4B9496" Ref="C?"  Part="1" 
AR Path="/5CC2278C/5D4B9496" Ref="C?"  Part="1" 
AR Path="/5D420BF5/5D4B9496" Ref="C186"  Part="1" 
AR Path="/5D4B9496" Ref="C186"  Part="1" 
F 0 "C186" H 1135 3191 50  0000 R CNN
F 1 "10uF" H 1135 3100 50  0000 R CNN
F 2 "Capacitor_SMD:C_0603_1608Metric" H 1288 2950 50  0001 C CNN
F 3 "~" H 1250 3100 50  0001 C CNN
F 4 "25 V" H 1135 3009 50  0000 R CNN "voltage"
F 5 "AVT-IPE" H 1250 3100 50  0001 C CNN "stock"
	1    1250 3100
	-1   0    0    -1  
$EndComp
$Comp
L Device:C C?
U 1 1 5D4B9E8D
P 2350 3100
AR Path="/5D437847/5D4B9E8D" Ref="C?"  Part="1" 
AR Path="/5CC2278C/5D4B9E8D" Ref="C?"  Part="1" 
AR Path="/5D420BF5/5D4B9E8D" Ref="C189"  Part="1" 
AR Path="/5D4B9E8D" Ref="C189"  Part="1" 
F 0 "C189" H 2465 3191 50  0000 L CNN
F 1 "10uF" H 2465 3100 50  0000 L CNN
F 2 "Capacitor_SMD:C_0603_1608Metric" H 2388 2950 50  0001 C CNN
F 3 "~" H 2350 3100 50  0001 C CNN
F 4 "25 V" H 2465 3009 50  0000 L CNN "voltage"
F 5 "AVT-IPE" H 2350 3100 50  0001 C CNN "stock"
	1    2350 3100
	1    0    0    -1  
$EndComp
$Comp
L Device:C C?
U 1 1 5D4D00F7
P 6950 4250
AR Path="/5D437847/5D4D00F7" Ref="C?"  Part="1" 
AR Path="/5CC2278C/5D4D00F7" Ref="C?"  Part="1" 
AR Path="/5D420BF5/5D4D00F7" Ref="C175"  Part="1" 
AR Path="/5D4D00F7" Ref="C175"  Part="1" 
F 0 "C175" H 7065 4341 50  0000 L CNN
F 1 "4.7uF" H 7065 4250 50  0000 L CNN
F 2 "Capacitor_SMD:C_0603_1608Metric" H 6988 4100 50  0001 C CNN
F 3 "~" H 6950 4250 50  0001 C CNN
F 4 "25 V" H 7065 4159 50  0000 L CNN "voltage"
F 5 "AVT-IPE" H 6950 4250 50  0001 C CNN "stock"
	1    6950 4250
	1    0    0    -1  
$EndComp
Wire Wire Line
	4950 6300 4950 6350
Text Notes 6500 8350 0    50   ~ 0
NOTE: Chamfered pad \ncould be pin 1 or pin 4
Wire Notes Line
	6450 8150 7500 8150
Wire Notes Line
	7500 8150 7500 8400
Wire Notes Line
	7500 8400 6450 8400
Wire Notes Line
	6450 8400 6450 8150
Wire Notes Line
	6450 8250 6250 8250
Wire Notes Line
	5950 7000 6350 7000
Wire Notes Line
	6350 7000 6350 7600
Wire Notes Line
	6350 7600 5950 7600
Wire Notes Line
	5950 7600 5950 7000
Wire Notes Line
	6250 7600 6250 8250
$Comp
L KIT_Power:+3V3_USB_VCCIO #PWR0165
U 1 1 5D830084
P 4000 6600
F 0 "#PWR0165" H 4000 6450 50  0001 C CNN
F 1 "+3V3_USB_VCCIO" H 4000 6800 50  0000 C CNN
F 2 "" H 4000 6600 50  0001 C CNN
F 3 "" H 4000 6600 50  0001 C CNN
	1    4000 6600
	1    0    0    -1  
$EndComp
Wire Notes Line
	500  5200 3100 5200
Wire Notes Line
	3100 1950 500  1950
Wire Notes Line
	3100 3600 500  3600
Wire Notes Line
	3100 500  3100 5200
Wire Wire Line
	5050 4650 4550 4650
$Comp
L Connector:USB_B_Micro J?
U 1 1 5CC27A01
P 4250 4850
AR Path="/5D437847/5CC27A01" Ref="J?"  Part="1" 
AR Path="/5CC2278C/5CC27A01" Ref="J?"  Part="1" 
AR Path="/5D420BF5/5CC27A01" Ref="J6"  Part="1" 
AR Path="/5CC27A01" Ref="J6"  Part="1" 
F 0 "J6" H 4307 5317 50  0000 C CNN
F 1 "USB_B_Micro" H 4307 5226 50  0000 C CNN
F 2 "Connector_USB:USB_Micro-B_Molex_47346-0001" H 4400 4800 50  0001 C CNN
F 3 "~" H 4400 4800 50  0001 C CNN
F 4 "702-5475" H 4250 4850 50  0001 C CNN "rs#"
F 5 "Molex" H 4250 4850 50  0001 C CNN "manf"
F 6 " 47346-0001 " H 4250 4850 50  0001 C CNN "manf#"
	1    4250 4850
	1    0    0    -1  
$EndComp
$Comp
L power:GND #PWR?
U 1 1 5D95F2A2
P 4250 5600
AR Path="/5D437847/5D95F2A2" Ref="#PWR?"  Part="1" 
AR Path="/5CC2278C/5D95F2A2" Ref="#PWR?"  Part="1" 
AR Path="/5D420BF5/5D95F2A2" Ref="#PWR?"  Part="1" 
AR Path="/5D95F2A2" Ref="#PWR0166"  Part="1" 
F 0 "#PWR0166" H 4250 5350 50  0001 C CNN
F 1 "GND" H 4255 5427 50  0000 C CNN
F 2 "" H 4250 5600 50  0001 C CNN
F 3 "" H 4250 5600 50  0001 C CNN
	1    4250 5600
	1    0    0    -1  
$EndComp
Wire Wire Line
	4550 4850 5400 4850
Wire Wire Line
	4550 4950 5400 4950
Wire Wire Line
	4250 5250 4250 5600
Text Label 5050 4650 2    50   ~ 0
USB_VBUS
$Comp
L power:PWR_FLAG #FLG0101
U 1 1 5DDF0CE9
P 7400 1700
F 0 "#FLG0101" H 7400 1775 50  0001 C CNN
F 1 "PWR_FLAG" H 7400 1873 50  0000 C CNN
F 2 "" H 7400 1700 50  0001 C CNN
F 3 "~" H 7400 1700 50  0001 C CNN
	1    7400 1700
	1    0    0    -1  
$EndComp
$Comp
L power:PWR_FLAG #FLG0102
U 1 1 5DDF11D7
P 7400 2900
F 0 "#FLG0102" H 7400 2975 50  0001 C CNN
F 1 "PWR_FLAG" H 7400 3073 50  0000 C CNN
F 2 "" H 7400 2900 50  0001 C CNN
F 3 "~" H 7400 2900 50  0001 C CNN
	1    7400 2900
	1    0    0    -1  
$EndComp
$Comp
L power:PWR_FLAG #FLG0103
U 1 1 5DDF5748
P 2500 1250
F 0 "#FLG0103" H 2500 1325 50  0001 C CNN
F 1 "PWR_FLAG" V 2500 1378 50  0000 L CNN
F 2 "" H 2500 1250 50  0001 C CNN
F 3 "~" H 2500 1250 50  0001 C CNN
	1    2500 1250
	0    1    1    0   
$EndComp
Wire Wire Line
	550  1100 950  1100
Wire Wire Line
	6500 1700 6850 1700
Wire Wire Line
	6000 1700 6200 1700
Wire Wire Line
	6500 2900 6850 2900
Wire Wire Line
	6000 2900 6200 2900
Wire Wire Line
	1600 1250 1950 1250
Wire Wire Line
	950  1250 1300 1250
Wire Wire Line
	1900 3150 1900 3250
Text Label 2200 3900 2    50   ~ 0
USB_VBUS
Wire Wire Line
	1800 3900 1800 4050
Wire Wire Line
	1800 3900 2200 3900
$Comp
L power:GND #PWR?
U 1 1 5F32D51F
P 1800 4850
AR Path="/5D437847/5F32D51F" Ref="#PWR?"  Part="1" 
AR Path="/5CC2278C/5F32D51F" Ref="#PWR?"  Part="1" 
AR Path="/5D420BF5/5F32D51F" Ref="#PWR?"  Part="1" 
AR Path="/5F32D51F" Ref="#PWR0172"  Part="1" 
F 0 "#PWR0172" H 1800 4600 50  0001 C CNN
F 1 "GND" H 1805 4677 50  0000 C CNN
F 2 "" H 1800 4850 50  0001 C CNN
F 3 "" H 1800 4850 50  0001 C CNN
	1    1800 4850
	1    0    0    -1  
$EndComp
Text Label 750  4550 0    50   ~ 0
USB_DATA_N
Text Label 2850 4550 2    50   ~ 0
USB_DATA_P
$Comp
L Device:R R61
U 1 1 5D8A86B3
P 6900 5150
F 0 "R61" V 6850 5350 50  0000 C CNN
F 1 "12k" V 6850 4950 50  0000 C CNN
F 2 "Resistor_SMD:R_0402_1005Metric" V 6830 5150 50  0001 C CNN
F 3 "~" H 6900 5150 50  0001 C CNN
F 4 "1%" H 6900 5150 50  0001 C CNN "tolerance"
F 5 "AVT-IPE" H 6900 5150 50  0001 C CNN "stock"
	1    6900 5150
	0    1    1    0   
$EndComp
$Comp
L Device:R R220
U 1 1 5F48C966
P 6500 4850
F 0 "R220" V 6450 5050 50  0000 C CNN
F 1 "33" V 6450 4700 50  0000 C CNN
F 2 "Resistor_SMD:R_0402_1005Metric" V 6430 4850 50  0001 C CNN
F 3 "~" H 6500 4850 50  0001 C CNN
F 4 "" H 6500 4850 50  0001 C CNN "tolerance"
F 5 "AVT-IPE" H 6500 4850 50  0001 C CNN "stock"
	1    6500 4850
	0    1    1    0   
$EndComp
Wire Wire Line
	6650 4850 7150 4850
$Comp
L Device:R R221
U 1 1 5F48CD2C
P 6500 4950
F 0 "R221" V 6450 5150 50  0000 C CNN
F 1 "33" V 6450 4800 50  0000 C CNN
F 2 "Resistor_SMD:R_0402_1005Metric" V 6430 4950 50  0001 C CNN
F 3 "~" H 6500 4950 50  0001 C CNN
F 4 "" H 6500 4950 50  0001 C CNN "tolerance"
F 5 "AVT-IPE" H 6500 4950 50  0001 C CNN "stock"
	1    6500 4950
	0    1    1    0   
$EndComp
Wire Wire Line
	6350 4950 5600 4950
Text Label 5600 4850 0    50   ~ 0
USB_N
Text Label 5600 4950 0    50   ~ 0
USB_P
Wire Wire Line
	4150 5400 4150 5250
$Comp
L power:GND #PWR?
U 1 1 5F5184CD
P 3300 5850
AR Path="/5D437847/5F5184CD" Ref="#PWR?"  Part="1" 
AR Path="/5CC2278C/5F5184CD" Ref="#PWR?"  Part="1" 
AR Path="/5D420BF5/5F5184CD" Ref="#PWR?"  Part="1" 
AR Path="/5F5184CD" Ref="#PWR0173"  Part="1" 
F 0 "#PWR0173" H 3300 5600 50  0001 C CNN
F 1 "GND" H 3305 5677 50  0000 C CNN
F 2 "" H 3300 5850 50  0001 C CNN
F 3 "" H 3300 5850 50  0001 C CNN
	1    3300 5850
	1    0    0    -1  
$EndComp
$Comp
L Device:C C?
U 1 1 5FBE2966
P 3750 5600
AR Path="/5D437847/5FBE2966" Ref="C?"  Part="1" 
AR Path="/5CC2278C/5FBE2966" Ref="C?"  Part="1" 
AR Path="/5D420BF5/5FBE2966" Ref="C339"  Part="1" 
AR Path="/5FBE2966" Ref="C339"  Part="1" 
F 0 "C339" H 3865 5691 50  0000 L CNN
F 1 "0.1uF" H 3865 5600 50  0000 L CNN
F 2 "Capacitor_SMD:C_0603_1608Metric" H 3788 5450 50  0001 C CNN
F 3 "~" H 3750 5600 50  0001 C CNN
F 4 "16 V" H 3865 5509 50  0000 L CNN "voltage"
F 5 "AVT-IPE" H 3750 5600 50  0001 C CNN "stock"
	1    3750 5600
	1    0    0    -1  
$EndComp
Wire Wire Line
	4150 5400 3750 5400
Wire Wire Line
	3300 5400 3300 5450
Wire Wire Line
	3300 5750 3300 5800
Wire Wire Line
	3750 5400 3750 5450
Wire Wire Line
	3750 5800 3300 5800
Wire Wire Line
	3750 5750 3750 5800
Connection ~ 3750 5400
Wire Wire Line
	3750 5400 3300 5400
Connection ~ 3300 5800
Wire Wire Line
	3300 5800 3300 5850
$Comp
L Device:R R56
U 1 1 5FC39F4B
P 3300 5600
F 0 "R56" H 3230 5554 50  0000 R CNN
F 1 "1M" H 3230 5645 50  0000 R CNN
F 2 "Resistor_SMD:R_0603_1608Metric" V 3230 5600 50  0001 C CNN
F 3 "~" H 3300 5600 50  0001 C CNN
F 4 "" H 3300 5600 50  0001 C CNN "tolerance"
F 5 "AVT-IPE" H 3300 5600 50  0001 C CNN "stock"
	1    3300 5600
	-1   0    0    1   
$EndComp
$Comp
L Regulator_Linear:TLV75733PDBV U22
U 1 1 5F346D02
P 1900 2850
F 0 "U22" H 1900 3192 50  0000 C CNN
F 1 "TLV75733PDBV" H 1900 3101 50  0000 C CNN
F 2 "Package_TO_SOT_SMD:SOT-23-5" H 1900 3175 50  0001 C CIN
F 3 "https://www.ti.com/lit/ds/symlink/tlv757p.pdf" H 1900 2900 50  0001 C CNN
F 4 "Texas Instruments" H 1900 2850 50  0001 C CNN "manf"
F 5 "TLV75733PDBVR" H 1900 2850 50  0001 C CNN "manf#"
F 6 "296-50414-1-ND" H 1900 2850 50  0001 C CNN "digikey#"
F 7 "Linear voltage Regulator IC  1 Output  1A SOT-23-5" H 1900 2850 50  0001 C CNN "info"
	1    1900 2850
	1    0    0    -1  
$EndComp
$Comp
L Power_Protection:USBLC6-2P6 U54
U 1 1 5F6EE898
P 1800 4450
F 0 "U54" H 2000 4800 50  0000 C CNN
F 1 "USBLC6-2P6" H 1450 4800 50  0000 C CNN
F 2 "Package_TO_SOT_SMD:SOT-666" H 1800 3950 50  0001 C CNN
F 3 "https://www.st.com/resource/en/datasheet/usblc6-2.pdf" H 2000 4800 50  0001 C CNN
F 4 "17V Clamp 5A (8/20µs) Ipp Tvs Diode Surface Mount SOT-666" H 1800 4450 50  0001 C CNN "info"
F 5 "STMicroelectronics" H 1800 4450 50  0001 C CNN "manf"
F 6 "USBLC6-2P6" H 1800 4450 50  0001 C CNN "manf#"
F 7 "497-5026-1-ND" H 1800 4450 50  0001 C CNN "digikey#"
F 8 "624-7687" H 1800 4450 50  0001 C CNN "rs#"
	1    1800 4450
	1    0    0    -1  
$EndComp
$Comp
L Device:Ferrite_Bead FB?
U 1 1 5F4FFD1B
P 1450 1250
AR Path="/5D68F214/5F4FFD1B" Ref="FB?"  Part="1" 
AR Path="/5B52D3FA/5F4FFD1B" Ref="FB?"  Part="1" 
AR Path="/5F657C84/5F4FFD1B" Ref="FB?"  Part="1" 
AR Path="/5D420BF5/5F4FFD1B" Ref="FB3"  Part="1" 
AR Path="/5F4FFD1B" Ref="FB3"  Part="1" 
F 0 "FB3" V 1176 1250 50  0000 C CNN
F 1 "220 @ 100MHz" V 1267 1250 50  0000 C CNN
F 2 "Inductor_SMD:L_0603_1608Metric" V 1380 1250 50  0001 C CNN
F 3 "https://product.tdk.com/info/en/catalog/datasheets/beads_automotive_power_mpz1608_en.pdf" H 1450 1250 50  0001 C CNN
F 4 "TDK Corporation" V 1450 1250 50  0001 C CNN "manf"
F 5 "MPZ1608S221ATD25" V 1450 1250 50  0001 C CNN "manf#"
F 6 "220 Ohms @ 100MHz 1 Power Line Ferrite Bead 0603 (1608 Metric) 2.2A 50mOhm" V 1450 1250 50  0001 C CNN "info"
F 7 "445-172893-1-ND" V 1450 1250 50  0001 C CNN "digikey#"
F 8 "810-MPZ1608S221ATD25" V 1450 1250 50  0001 C CNN "mouser#"
	1    1450 1250
	0    1    1    0   
$EndComp
$Comp
L Device:Ferrite_Bead FB?
U 1 1 5F5191CD
P 6350 1700
AR Path="/5D68F214/5F5191CD" Ref="FB?"  Part="1" 
AR Path="/5B52D3FA/5F5191CD" Ref="FB?"  Part="1" 
AR Path="/5F657C84/5F5191CD" Ref="FB?"  Part="1" 
AR Path="/5D420BF5/5F5191CD" Ref="FB4"  Part="1" 
AR Path="/5F5191CD" Ref="FB4"  Part="1" 
F 0 "FB4" V 6076 1700 50  0000 C CNN
F 1 "220 @ 100MHz" V 6167 1700 50  0000 C CNN
F 2 "Inductor_SMD:L_0603_1608Metric" V 6280 1700 50  0001 C CNN
F 3 "https://product.tdk.com/info/en/catalog/datasheets/beads_automotive_power_mpz1608_en.pdf" H 6350 1700 50  0001 C CNN
F 4 "TDK Corporation" V 6350 1700 50  0001 C CNN "manf"
F 5 "MPZ1608S221ATD25" V 6350 1700 50  0001 C CNN "manf#"
F 6 "220 Ohms @ 100MHz 1 Power Line Ferrite Bead 0603 (1608 Metric) 2.2A 50mOhm" V 6350 1700 50  0001 C CNN "info"
F 7 "445-172893-1-ND" V 6350 1700 50  0001 C CNN "digikey#"
F 8 "810-MPZ1608S221ATD25" V 6350 1700 50  0001 C CNN "mouser#"
	1    6350 1700
	0    1    1    0   
$EndComp
$Comp
L Device:Ferrite_Bead FB?
U 1 1 5F531FF9
P 6350 2900
AR Path="/5D68F214/5F531FF9" Ref="FB?"  Part="1" 
AR Path="/5B52D3FA/5F531FF9" Ref="FB?"  Part="1" 
AR Path="/5F657C84/5F531FF9" Ref="FB?"  Part="1" 
AR Path="/5D420BF5/5F531FF9" Ref="FB5"  Part="1" 
AR Path="/5F531FF9" Ref="FB5"  Part="1" 
F 0 "FB5" V 6076 2900 50  0000 C CNN
F 1 "220 @ 100MHz" V 6167 2900 50  0000 C CNN
F 2 "Inductor_SMD:L_0603_1608Metric" V 6280 2900 50  0001 C CNN
F 3 "https://product.tdk.com/info/en/catalog/datasheets/beads_automotive_power_mpz1608_en.pdf" H 6350 2900 50  0001 C CNN
F 4 "TDK Corporation" V 6350 2900 50  0001 C CNN "manf"
F 5 "MPZ1608S221ATD25" V 6350 2900 50  0001 C CNN "manf#"
F 6 "220 Ohms @ 100MHz 1 Power Line Ferrite Bead 0603 (1608 Metric) 2.2A 50mOhm" V 6350 2900 50  0001 C CNN "info"
F 7 "445-172893-1-ND" V 6350 2900 50  0001 C CNN "digikey#"
F 8 "810-MPZ1608S221ATD25" V 6350 2900 50  0001 C CNN "mouser#"
	1    6350 2900
	0    1    1    0   
$EndComp
NoConn ~ 4550 5050
$Comp
L Interface:PCA9306DC1 U2
U 1 1 62072492
P 14550 8900
F 0 "U2" H 14300 8450 50  0000 C CNN
F 1 "TCA39306DCU" H 14900 8450 50  0000 C CNN
F 2 "Package_SO:VSSOP-8_2.3x2mm_P0.5mm" H 14550 8450 50  0001 C CNN
F 3 "https://www.ti.com/lit/ds/symlink/tca39306.pdf?ts=1630428611843&ref_url=https%253A%252F%252Fwww.ti.com%252Fproduct%252FTCA39306" H 14250 9350 50  0001 C CNN
	1    14550 8900
	1    0    0    -1  
$EndComp
$Comp
L power:+1V8 #PWR0180
U 1 1 62075986
P 13850 7850
F 0 "#PWR0180" H 13850 7700 50  0001 C CNN
F 1 "+1V8" H 13865 8023 50  0000 C CNN
F 2 "" H 13850 7850 50  0001 C CNN
F 3 "" H 13850 7850 50  0001 C CNN
	1    13850 7850
	1    0    0    -1  
$EndComp
$Comp
L power:+3V3 #PWR0181
U 1 1 6207A4AE
P 15350 7850
F 0 "#PWR0181" H 15350 7700 50  0001 C CNN
F 1 "+3V3" H 15365 8023 50  0000 C CNN
F 2 "" H 15350 7850 50  0001 C CNN
F 3 "" H 15350 7850 50  0001 C CNN
	1    15350 7850
	1    0    0    -1  
$EndComp
$Comp
L Device:C C?
U 1 1 620B803B
P 13850 8100
AR Path="/5D437847/620B803B" Ref="C?"  Part="1" 
AR Path="/5CC2278C/620B803B" Ref="C?"  Part="1" 
AR Path="/5D420BF5/620B803B" Ref="C?"  Part="1" 
AR Path="/620B803B" Ref="C1"  Part="1" 
F 0 "C1" H 13736 8191 50  0000 R CNN
F 1 "0.1uF" H 13736 8100 50  0000 R CNN
F 2 "Capacitor_SMD:C_0402_1005Metric" H 13888 7950 50  0001 C CNN
F 3 "~" H 13850 8100 50  0001 C CNN
F 4 "25 V" H 13736 8009 50  0000 R CNN "voltage"
F 5 "AVT-IPE" H 13850 8100 50  0001 C CNN "stock"
	1    13850 8100
	1    0    0    -1  
$EndComp
$Comp
L power:GND #PWR0182
U 1 1 620B8041
P 13850 8250
F 0 "#PWR0182" H 13850 8000 50  0001 C CNN
F 1 "GND" H 13855 8077 50  0000 C CNN
F 2 "" H 13850 8250 50  0001 C CNN
F 3 "" H 13850 8250 50  0001 C CNN
	1    13850 8250
	1    0    0    -1  
$EndComp
$Comp
L Device:C C?
U 1 1 620B8049
P 15350 8100
AR Path="/5D437847/620B8049" Ref="C?"  Part="1" 
AR Path="/5CC2278C/620B8049" Ref="C?"  Part="1" 
AR Path="/5D420BF5/620B8049" Ref="C?"  Part="1" 
AR Path="/620B8049" Ref="C2"  Part="1" 
F 0 "C2" H 15465 8191 50  0000 L CNN
F 1 "0.1uF" H 15465 8100 50  0000 L CNN
F 2 "Capacitor_SMD:C_0402_1005Metric" H 15388 7950 50  0001 C CNN
F 3 "~" H 15350 8100 50  0001 C CNN
F 4 "25 V" H 15465 8009 50  0000 L CNN "voltage"
F 5 "AVT-IPE" H 15350 8100 50  0001 C CNN "stock"
	1    15350 8100
	1    0    0    -1  
$EndComp
$Comp
L power:GND #PWR0183
U 1 1 620B804F
P 15350 8250
F 0 "#PWR0183" H 15350 8000 50  0001 C CNN
F 1 "GND" H 15355 8077 50  0000 C CNN
F 2 "" H 15350 8250 50  0001 C CNN
F 3 "" H 15350 8250 50  0001 C CNN
	1    15350 8250
	1    0    0    -1  
$EndComp
Wire Wire Line
	13850 7900 13850 7950
Wire Wire Line
	15350 7900 15350 7950
Wire Wire Line
	13850 7900 14450 7900
Wire Wire Line
	14450 7900 14450 8400
Wire Wire Line
	14650 7900 15350 7900
Wire Wire Line
	14650 7900 14650 8000
Wire Wire Line
	13850 7850 13850 7900
Connection ~ 13850 7900
Wire Wire Line
	14650 8300 14650 8350
Wire Wire Line
	15350 7850 15350 7900
Connection ~ 15350 7900
$Comp
L Connector_Generic:Conn_02x05_Odd_Even J1
U 1 1 621B83FA
P 14500 3950
F 0 "J1" H 14550 4275 50  0000 C CNN
F 1 "Conn_02x05_Odd_Even" H 14550 4276 50  0001 C CNN
F 2 "Connector_PinHeader_2.00mm:PinHeader_2x05_P2.00mm_Vertical" H 14500 3950 50  0001 C CNN
F 3 "~" H 14500 3950 50  0001 C CNN
	1    14500 3950
	1    0    0    -1  
$EndComp
Wire Wire Line
	14300 3750 14150 3750
Wire Wire Line
	13900 3750 13900 3650
Wire Wire Line
	14300 3850 13900 3850
Text Label 13900 3850 0    50   ~ 0
UART_TX
Wire Wire Line
	14800 3850 15300 3850
Text Label 15300 3850 2    50   ~ 0
UART_RX
$Comp
L power:GND #PWR0184
U 1 1 6222C1CA
P 14900 4350
F 0 "#PWR0184" H 14900 4100 50  0001 C CNN
F 1 "GND" H 14905 4177 50  0000 C CNN
F 2 "" H 14900 4350 50  0001 C CNN
F 3 "" H 14900 4350 50  0001 C CNN
	1    14900 4350
	1    0    0    -1  
$EndComp
Wire Wire Line
	14900 3750 14800 3750
Wire Wire Line
	14900 3750 14900 3950
Wire Wire Line
	14800 3950 14900 3950
Connection ~ 14900 3950
Wire Wire Line
	14900 3950 14900 4350
NoConn ~ 14300 3950
$Comp
L Device:R R9
U 1 1 6207437E
P 14650 8150
F 0 "R9" H 14720 8196 50  0000 L CNN
F 1 "200k" H 14720 8105 50  0000 L CNN
F 2 "Resistor_SMD:R_0603_1608Metric" V 14580 8150 50  0001 C CNN
F 3 "~" H 14650 8150 50  0001 C CNN
	1    14650 8150
	1    0    0    -1  
$EndComp
$Comp
L power:+3V3 #PWR0185
U 1 1 621BCA52
P 13900 3650
F 0 "#PWR0185" H 13900 3500 50  0001 C CNN
F 1 "+3V3" H 13915 3823 50  0000 C CNN
F 2 "" H 13900 3650 50  0001 C CNN
F 3 "" H 13900 3650 50  0001 C CNN
	1    13900 3650
	1    0    0    -1  
$EndComp
Text Label 13750 4150 0    50   ~ 0
PMBUS_SCL
Wire Wire Line
	13750 4150 14300 4150
Text Label 15600 4150 2    50   ~ 0
PMBUS_SDA
Wire Wire Line
	14800 4150 15600 4150
$Comp
L Connector_Generic:Conn_02x05_Odd_Even J2
U 1 1 624A456C
P 14500 5250
F 0 "J2" H 14550 5575 50  0000 C CNN
F 1 "Conn_02x05_Odd_Even" H 14550 5576 50  0001 C CNN
F 2 "Connector_PinHeader_2.00mm:PinHeader_2x05_P2.00mm_Vertical" H 14500 5250 50  0001 C CNN
F 3 "~" H 14500 5250 50  0001 C CNN
	1    14500 5250
	1    0    0    -1  
$EndComp
Wire Wire Line
	14300 5050 13900 5050
Wire Wire Line
	13900 5050 13900 4950
$Comp
L power:GND #PWR0188
U 1 1 624A4578
P 14900 5650
F 0 "#PWR0188" H 14900 5400 50  0001 C CNN
F 1 "GND" H 14905 5477 50  0000 C CNN
F 2 "" H 14900 5650 50  0001 C CNN
F 3 "" H 14900 5650 50  0001 C CNN
	1    14900 5650
	1    0    0    -1  
$EndComp
Wire Wire Line
	14900 5050 14800 5050
Wire Wire Line
	14900 5050 14900 5250
Wire Wire Line
	14800 5250 14900 5250
Connection ~ 14900 5250
Wire Wire Line
	14900 5250 14900 5650
NoConn ~ 14300 5250
Text Label 13750 5450 0    50   ~ 0
X0_SCL
Wire Wire Line
	13750 5450 14300 5450
Text Label 15600 5450 2    50   ~ 0
X0_SDA
Wire Wire Line
	14800 5450 15600 5450
$Comp
L power:+1V8 #PWR0189
U 1 1 624C43EE
P 13900 4950
F 0 "#PWR0189" H 13900 4800 50  0001 C CNN
F 1 "+1V8" H 13915 5123 50  0000 C CNN
F 2 "" H 13900 4950 50  0001 C CNN
F 3 "" H 13900 4950 50  0001 C CNN
	1    13900 4950
	1    0    0    -1  
$EndComp
NoConn ~ 14300 5150
NoConn ~ 14800 5150
$Comp
L Connector_Generic:Conn_02x05_Odd_Even J3
U 1 1 62524EEF
P 14500 6550
F 0 "J3" H 14550 6875 50  0000 C CNN
F 1 "Conn_02x05_Odd_Even" H 14550 6876 50  0001 C CNN
F 2 "Connector_PinHeader_2.00mm:PinHeader_2x05_P2.00mm_Vertical" H 14500 6550 50  0001 C CNN
F 3 "~" H 14500 6550 50  0001 C CNN
	1    14500 6550
	1    0    0    -1  
$EndComp
Wire Wire Line
	14300 6350 14200 6350
Wire Wire Line
	13900 6350 13900 6250
$Comp
L power:GND #PWR0192
U 1 1 62524EF7
P 14900 6950
F 0 "#PWR0192" H 14900 6700 50  0001 C CNN
F 1 "GND" H 14905 6777 50  0000 C CNN
F 2 "" H 14900 6950 50  0001 C CNN
F 3 "" H 14900 6950 50  0001 C CNN
	1    14900 6950
	1    0    0    -1  
$EndComp
Wire Wire Line
	14900 6350 14800 6350
Wire Wire Line
	14900 6350 14900 6550
Wire Wire Line
	14800 6550 14900 6550
Connection ~ 14900 6550
Wire Wire Line
	14900 6550 14900 6950
NoConn ~ 14300 6550
Text Label 13750 6750 0    50   ~ 0
SCL
Wire Wire Line
	13750 6750 14300 6750
Text Label 15600 6750 2    50   ~ 0
SDA
Wire Wire Line
	14800 6750 15600 6750
$Comp
L power:+1V8 #PWR0193
U 1 1 62524F19
P 13900 6250
F 0 "#PWR0193" H 13900 6100 50  0001 C CNN
F 1 "+1V8" H 13915 6423 50  0000 C CNN
F 2 "" H 13900 6250 50  0001 C CNN
F 3 "" H 13900 6250 50  0001 C CNN
	1    13900 6250
	1    0    0    -1  
$EndComp
NoConn ~ 14300 6450
NoConn ~ 14800 6450
Wire Wire Line
	11650 8900 10950 8900
Wire Wire Line
	11650 9850 10950 9850
Text Label 10950 8900 0    50   ~ 0
SCL
Text Label 10950 9850 0    50   ~ 0
SDA
Wire Wire Line
	14650 8350 15050 8350
Wire Wire Line
	15050 8350 15050 8650
Wire Wire Line
	15050 8800 14950 8800
Connection ~ 14650 8350
Wire Wire Line
	14650 8350 14650 8400
Wire Wire Line
	14950 8900 15550 8900
Wire Wire Line
	14950 9000 15550 9000
Text Label 15550 8900 2    50   ~ 0
PMBUS_SCL
Text Label 15550 9000 2    50   ~ 0
PMBUS_SDA
$Comp
L power:GND #PWR0196
U 1 1 62616B87
P 14550 9500
F 0 "#PWR0196" H 14550 9250 50  0001 C CNN
F 1 "GND" H 14555 9327 50  0000 C CNN
F 2 "" H 14550 9500 50  0001 C CNN
F 3 "" H 14550 9500 50  0001 C CNN
	1    14550 9500
	1    0    0    -1  
$EndComp
Wire Wire Line
	14550 9500 14550 9400
Text Label 12300 6450 2    50   ~ 0
UART_TX
Text Label 12300 6150 2    50   ~ 0
UART_RX
Wire Wire Line
	11850 6150 12300 6150
Wire Wire Line
	11850 6450 12300 6450
NoConn ~ 9550 5650
NoConn ~ 9550 5750
$Comp
L Device:Jumper JP1
U 1 1 620A4272
P 11550 6150
F 0 "JP1" H 11550 6323 50  0000 C CNN
F 1 "Jumper" H 11550 6323 50  0001 C CNN
F 2 "Jumper:SolderJumper-2_P1.3mm_Bridged_Pad1.0x1.5mm" H 11550 6150 50  0001 C CNN
F 3 "~" H 11550 6150 50  0001 C CNN
	1    11550 6150
	1    0    0    -1  
$EndComp
$Comp
L Device:Jumper JP2
U 1 1 620E4753
P 11550 6450
F 0 "JP2" H 11550 6623 50  0000 C CNN
F 1 "Jumper" H 11550 6623 50  0001 C CNN
F 2 "Jumper:SolderJumper-2_P1.3mm_Bridged_Pad1.0x1.5mm" H 11550 6450 50  0001 C CNN
F 3 "~" H 11550 6450 50  0001 C CNN
	1    11550 6450
	1    0    0    -1  
$EndComp
Wire Wire Line
	10500 6150 10500 4750
Wire Wire Line
	11650 9250 10950 9250
Text Label 10950 9250 0    50   ~ 0
X0_SDA
Text Label 10950 8300 0    50   ~ 0
X0_SCL
Wire Wire Line
	10950 8300 11650 8300
Wire Wire Line
	14150 9000 13900 9000
NoConn ~ 10700 4400
Wire Wire Line
	4750 9900 6650 9900
Wire Wire Line
	4750 10000 6650 10000
Wire Wire Line
	4750 10100 6650 10100
Wire Wire Line
	4750 10200 6650 10200
Text Label 6650 10400 2    50   ~ 0
FT4232_SRST_B
$Comp
L KIT_Power:+3V3_STBY #PWR0105
U 1 1 624856D7
P 4900 9750
F 0 "#PWR0105" H 4900 9600 50  0001 C CNN
F 1 "+3V3_STBY" H 4915 9923 50  0000 C CNN
F 2 "" H 4900 9750 50  0001 C CNN
F 3 "" H 4900 9750 50  0001 C CNN
	1    4900 9750
	1    0    0    -1  
$EndComp
Wire Wire Line
	4900 9750 4900 9800
Wire Wire Line
	4750 9800 4900 9800
$Comp
L KIT_Power:+3V3_STBY #PWR0121
U 1 1 624B561F
P 10350 3500
F 0 "#PWR0121" H 10350 3350 50  0001 C CNN
F 1 "+3V3_STBY" H 10365 3673 50  0000 C CNN
F 2 "" H 10350 3500 50  0001 C CNN
F 3 "" H 10350 3500 50  0001 C CNN
	1    10350 3500
	1    0    0    -1  
$EndComp
Text Label 2850 4350 2    50   ~ 0
USB_P
Text Label 750  4350 0    50   ~ 0
USB_N
Wire Wire Line
	750  4550 1400 4550
Wire Wire Line
	750  4350 1400 4350
Wire Wire Line
	2200 4550 2850 4550
Wire Wire Line
	2200 4350 2850 4350
$Comp
L power:+1V8 #PWR0124
U 1 1 625E26C0
P 14250 1200
F 0 "#PWR0124" H 14250 1050 50  0001 C CNN
F 1 "+1V8" H 14265 1373 50  0000 C CNN
F 2 "" H 14250 1200 50  0001 C CNN
F 3 "" H 14250 1200 50  0001 C CNN
	1    14250 1200
	1    0    0    -1  
$EndComp
Text Label 6850 4850 0    50   ~ 0
USB_RN
Text Label 6850 4950 0    50   ~ 0
USB_RP
NoConn ~ 14800 4050
NoConn ~ 14300 4050
NoConn ~ 14300 5350
NoConn ~ 14800 5350
NoConn ~ 14800 6650
NoConn ~ 14300 6650
$Comp
L Jumper:Jumper_3_Bridged12 JP3
U 1 1 6282437C
P 11650 8600
F 0 "JP3" V 11650 8667 50  0000 L CNN
F 1 "Jumper_3_Bridged12" V 11605 8667 50  0001 L CNN
F 2 "Jumper:SolderJumper-3_P1.3mm_Bridged12_Pad1.0x1.5mm" H 11650 8600 50  0001 C CNN
F 3 "~" H 11650 8600 50  0001 C CNN
	1    11650 8600
	0    -1   -1   0   
$EndComp
$Comp
L Jumper:Jumper_3_Bridged12 JP4
U 1 1 62825012
P 11650 9550
F 0 "JP4" V 11650 9617 50  0000 L CNN
F 1 "Jumper_3_Bridged12" V 11605 9617 50  0001 L CNN
F 2 "Jumper:SolderJumper-3_P1.3mm_Bridged12_Pad1.0x1.5mm" H 11650 9550 50  0001 C CNN
F 3 "~" H 11650 9550 50  0001 C CNN
	1    11650 9550
	0    -1   -1   0   
$EndComp
Wire Wire Line
	11650 8850 11650 8900
Wire Wire Line
	11650 8300 11650 8350
Wire Wire Line
	11650 9250 11650 9300
Wire Wire Line
	11650 9800 11650 9850
Wire Wire Line
	11800 9550 13900 9550
Wire Wire Line
	13250 8900 13250 8600
Wire Wire Line
	13250 8600 11800 8600
Wire Wire Line
	13250 8900 14150 8900
Wire Wire Line
	13900 9000 13900 9550
$Comp
L power:PWR_FLAG #FLG0104
U 1 1 629C1608
P 4900 9800
F 0 "#FLG0104" H 4900 9875 50  0001 C CNN
F 1 "PWR_FLAG" V 4900 9928 50  0000 L CNN
F 2 "" H 4900 9800 50  0001 C CNN
F 3 "~" H 4900 9800 50  0001 C CNN
	1    4900 9800
	0    1    1    0   
$EndComp
Connection ~ 4900 9800
$Comp
L power:PWR_FLAG #FLG0105
U 1 1 629C1C77
P 14200 6350
F 0 "#FLG0105" H 14200 6425 50  0001 C CNN
F 1 "PWR_FLAG" H 14200 6523 50  0000 C CNN
F 2 "" H 14200 6350 50  0001 C CNN
F 3 "~" H 14200 6350 50  0001 C CNN
	1    14200 6350
	1    0    0    -1  
$EndComp
Connection ~ 14200 6350
Wire Wire Line
	14200 6350 13900 6350
$Comp
L power:PWR_FLAG #FLG0106
U 1 1 629C6EEF
P 14150 3750
F 0 "#FLG0106" H 14150 3825 50  0001 C CNN
F 1 "PWR_FLAG" H 14150 3923 50  0000 C CNN
F 2 "" H 14150 3750 50  0001 C CNN
F 3 "~" H 14150 3750 50  0001 C CNN
	1    14150 3750
	1    0    0    -1  
$EndComp
Connection ~ 14150 3750
Wire Wire Line
	14150 3750 13900 3750
$Comp
L power:PWR_FLAG #FLG0107
U 1 1 629D1B39
P 15050 8650
F 0 "#FLG0107" H 15050 8725 50  0001 C CNN
F 1 "PWR_FLAG" V 15050 8778 50  0000 L CNN
F 2 "" H 15050 8650 50  0001 C CNN
F 3 "~" H 15050 8650 50  0001 C CNN
	1    15050 8650
	0    1    1    0   
$EndComp
Connection ~ 15050 8650
Wire Wire Line
	15050 8650 15050 8800
NoConn ~ 9550 6550
NoConn ~ 9550 6650
NoConn ~ 9550 6750
NoConn ~ 9550 6850
NoConn ~ 9550 6950
NoConn ~ 9550 7050
NoConn ~ 9550 7150
NoConn ~ 9550 7250
Text Notes 11400 8000 0    98   ~ 0
NOTE: USE PCA9306DC1\nfrom the symbol library
$Comp
L KIT_Graphic:KIT_LOGO G1
U 1 1 620BF8E8
P 14800 10300
F 0 "G1" H 14800 10036 60  0001 C CNN
F 1 "KIT_LOGO" H 14800 10564 60  0001 C CNN
F 2 "KIT_Graphic:KIT_LOGO_MASK_4.1x1.6mm" H 14800 10300 157 0001 C CNN
F 3 "" H 14800 10300 157 0001 C CNN
	1    14800 10300
	1    0    0    -1  
$EndComp
$Comp
L KIT_Graphic:LA_LOGO G2
U 1 1 620C1B59
P 15700 10250
F 0 "G2" H 16075 10199 50  0001 L CNN
F 1 "LA_LOGO" H 15700 9990 50  0001 C CNN
F 2 "KIT_Graphic:LA_LOGO_MASK_NoName" H 15720 9920 50  0001 C CNN
F 3 "" H 15700 10250 50  0001 C CNN
	1    15700 10250
	1    0    0    -1  
$EndComp
$EndSCHEMATC
